<svg width="1798" height="144" viewBox="0 0 1798 144" fill="none" xmlns="http://www.w3.org/2000/svg">
<path d="M13.5111 144C10.5681 144 8.11556 142.435 6.15356 139.304C4.23615 136.058 2.78694 131.594 1.80594 125.913C0.824934 120.116 0.222955 113.391 0 105.739L4.4814 102.261C4.70435 108.058 5.10567 113.333 5.68535 118.087C6.26504 122.725 7.17915 126.435 8.4277 129.217C9.67625 131.884 11.393 133.217 13.578 133.217C15.9859 133.217 17.8587 131.594 19.1964 128.348C20.5342 125.101 21.203 119.942 21.203 112.87C21.203 106.609 20.601 101.217 19.3971 96.6956C18.2377 92.1739 16.6324 87.4203 14.5813 82.4348L5.01649 58.6087C3.32203 54.3188 2.07348 49.913 1.27084 45.3913C0.468206 40.7536 0.0668867 35.7101 0.0668867 30.2609C0.0668867 20.5217 1.18166 13.0435 3.41121 7.82608C5.64076 2.60869 8.60606 0 12.3071 0C14.2245 0 15.9413 0.63768 17.4574 1.91304C19.0181 3.1884 20.3335 5.27536 21.4037 8.17391C22.5185 10.9565 23.388 14.6087 24.0123 19.1304C24.6365 23.6522 25.0602 29.1594 25.2831 35.6522L20.9355 38.6087C20.7571 32.6956 20.3781 27.6522 19.7984 23.4783C19.2633 19.1884 18.3938 15.942 17.1898 13.7391C16.0305 11.5362 14.4029 10.4348 12.3071 10.4348C10.0776 10.4348 8.24934 11.942 6.82243 14.9565C5.39551 17.971 4.68206 22.6667 4.68206 29.0435C4.68206 32.8696 4.9496 36.3478 5.48469 39.4783C6.06438 42.6087 7.06768 45.971 8.49459 49.5652L18.0594 73.0435C20.1997 78.2609 22.0503 84.058 23.6109 90.4348C25.1716 96.8116 25.952 104 25.952 112C25.952 119.072 25.4169 124.986 24.3467 129.739C23.3211 134.493 21.8719 138.087 19.9991 140.522C18.1262 142.841 15.9636 144 13.5111 144Z" fill="#7F8192"/>
<path d="M36.7181 142.261V1.3913H56.3158V11.6522H41.8683V64.5217H53.6404V74.2609H41.8683V132.348H56.4496V142.261H36.7181Z" fill="#7F8192"/>
<path d="M67.4483 142.261V1.3913H72.5316V132.348H87.9155V142.261H67.4483Z" fill="#7F8192"/>
<path d="M97.0011 142.261V1.3913H116.465V11.3043H102.084V64.3478H114.057V74.087H102.084V142.261H97.0011Z" fill="#7F8192"/>
<path d="M124.942 90.6087V80.5217H139.122V90.6087H124.942Z" fill="#7F8192"/>
<path d="M150.217 142.261L151.555 1.3913H156.638L167.34 123.652L178.243 1.3913H183.326L184.664 142.261H180.45L179.38 30.087L169.012 142.261H165.735L155.501 30.2609L154.431 142.261H150.217Z" fill="#7F8192"/>
<path d="M197.611 142.261V1.3913H217.209V11.6522H202.762V64.5217H214.534V74.2609H202.762V132.348H217.343V142.261H197.611Z" fill="#7F8192"/>
<path d="M228.342 142.261V1.3913H240.114C243.904 1.3913 246.847 3.13043 248.943 6.60869C251.083 9.97101 252.599 14.7826 253.491 21.0435C254.383 27.3043 254.829 34.5507 254.829 42.7826V98.7826C254.829 107.478 254.383 115.13 253.491 121.739C252.599 128.232 251.128 133.275 249.077 136.87C247.025 140.464 244.194 142.261 240.582 142.261H228.342ZM233.425 132.348H240.248C243.101 132.348 245.197 130.841 246.535 127.826C247.873 124.696 248.72 120.464 249.077 115.13C249.433 109.681 249.612 103.536 249.612 96.6956V44.1739C249.612 37.1015 249.366 31.1884 248.876 26.4348C248.43 21.5652 247.516 17.913 246.134 15.4783C244.796 12.9275 242.767 11.6522 240.047 11.6522H233.425V132.348Z" fill="#7F8192"/>
<path d="M267.369 142.261V1.3913H272.452V142.261H267.369Z" fill="#7F8192"/>
<path d="M298.65 144C294.994 144 292.162 142.029 290.156 138.087C288.194 134.145 286.834 128.87 286.076 122.261C285.318 115.536 284.939 108.116 284.939 100V44C284.939 35.3043 285.318 27.6522 286.076 21.0435C286.878 14.4348 288.283 9.27536 290.29 5.56522C292.296 1.85507 295.083 0 298.65 0C301.906 0 304.447 1.62319 306.275 4.86956C308.148 8.11594 309.486 12.7536 310.289 18.7826C311.091 24.6956 311.493 31.7681 311.493 40V48.5217H306.677V40.3478C306.677 34.2029 306.476 28.9275 306.075 24.5217C305.718 20.1159 304.96 16.6956 303.801 14.2609C302.641 11.8261 300.947 10.6087 298.717 10.6087C296.265 10.6087 294.414 11.942 293.166 14.6087C291.962 17.1594 291.137 20.8116 290.691 25.5652C290.29 30.3188 290.089 35.8261 290.089 42.0869V102.087C290.089 109.043 290.334 114.841 290.825 119.478C291.36 124.116 292.252 127.594 293.5 129.913C294.749 132.232 296.488 133.391 298.717 133.391C300.991 133.391 302.686 132.116 303.801 129.565C304.96 127.014 305.718 123.478 306.075 118.957C306.476 114.319 306.677 108.928 306.677 102.783V93.5652H311.493V101.913C311.493 110.145 311.114 117.449 310.356 123.826C309.642 130.087 308.349 135.014 306.476 138.609C304.648 142.203 302.039 144 298.65 144Z" fill="#7F8192"/>
<path d="M320.524 142.261L331.961 1.3913H337.312L348.817 142.261H343.8L341.125 104.522H328.216L325.473 142.261H320.524ZM328.952 94.9565H340.456L334.704 18.9565L328.952 94.9565Z" fill="#7F8192"/>
<path d="M363.628 142.261V11.6522H353.394V1.3913H378.677V11.6522H368.711V142.261H363.628Z" fill="#7F8192"/>
<path d="M388.781 142.261V1.3913H393.864V142.261H388.781Z" fill="#7F8192"/>
<path d="M420.33 144C416.718 144 413.887 142.203 411.835 138.609C409.829 134.899 408.402 129.797 407.555 123.304C406.752 116.696 406.351 109.159 406.351 100.696V42.2609C406.351 33.6812 406.774 26.2609 407.622 20C408.513 13.6232 409.963 8.69565 411.969 5.21739C414.02 1.73913 416.807 0 420.33 0C423.808 0 426.55 1.73913 428.557 5.21739C430.608 8.69565 432.057 13.6232 432.905 20C433.752 26.2609 434.176 33.6812 434.176 42.2609V100.87C434.176 109.333 433.752 116.812 432.905 123.304C432.102 129.681 430.697 134.725 428.691 138.435C426.684 142.145 423.897 144 420.33 144ZM420.33 133.391C422.693 133.391 424.499 132.174 425.748 129.739C426.996 127.188 427.844 123.71 428.29 119.304C428.78 114.783 429.025 109.565 429.025 103.652V39.8261C429.025 33.913 428.78 28.7536 428.29 24.3478C427.844 19.942 426.996 16.5797 425.748 14.2609C424.499 11.8261 422.693 10.6087 420.33 10.6087C417.922 10.6087 416.072 11.8261 414.778 14.2609C413.53 16.5797 412.66 19.942 412.17 24.3478C411.724 28.7536 411.501 33.913 411.501 39.8261V103.652C411.501 109.565 411.724 114.783 412.17 119.304C412.66 123.71 413.53 127.188 414.778 129.739C416.072 132.174 417.922 133.391 420.33 133.391Z" fill="#7F8192"/>
<path d="M446.643 142.261V1.3913H450.321L467.578 110.783V1.3913H471.993V142.261H468.381L451.057 31.6522V142.261H446.643Z" fill="#7F8192"/>
<path d="M509.826 142.261L500.662 1.3913H505.01L512.167 115.826L520.327 3.47826H524.541L532.902 116L539.523 1.3913H543.804L535.042 142.261H531.096L522.467 26.087L513.973 142.261H509.826Z" fill="#7F8192"/>
<path d="M555.031 142.261V1.3913H560.114V142.261H555.031Z" fill="#7F8192"/>
<path d="M573.737 142.261V1.3913H578.821V132.348H594.205V142.261H573.737Z" fill="#7F8192"/>
<path d="M603.29 142.261V1.3913H608.374V132.348H623.758V142.261H603.29Z" fill="#7F8192"/>
<path d="M650.441 142.261V1.3913H655.591V63.8261H672.647V1.3913H677.731V142.261H672.647V73.7391H655.591V142.261H650.441Z" fill="#7F8192"/>
<path d="M688.287 142.261L699.725 1.3913H705.076L716.58 142.261H711.564L708.888 104.522H695.979L693.237 142.261H688.287ZM696.715 94.9565H708.22L702.467 18.9565L696.715 94.9565Z" fill="#7F8192"/>
<path d="M734.202 142.261L721.493 1.3913H726.376L736.61 118.087L746.241 1.3913H751.057L738.817 142.261H734.202Z" fill="#7F8192"/>
<path d="M761.308 142.261V1.3913H780.906V11.6522H766.458V64.5217H778.23V74.2609H766.458V132.348H781.04V142.261H761.308Z" fill="#7F8192"/>
<path d="M806.76 142.261L818.198 1.3913H823.549L835.053 142.261H830.037L827.361 104.522H814.452L811.71 142.261H806.76ZM815.188 94.9565H826.692L820.94 18.9565L815.188 94.9565Z" fill="#7F8192"/>
<path d="M845.592 142.261V1.3913H849.271L866.527 110.783V1.3913H870.942V142.261H867.33L850.006 31.6522V142.261H845.592Z" fill="#7F8192"/>
<path d="M899.077 142.261L910.514 1.3913H915.865L927.37 142.261H922.353L919.678 104.522H906.768L904.026 142.261H899.077ZM907.504 94.9565H919.009L913.257 18.9565L907.504 94.9565Z" fill="#7F8192"/>
<path d="M937.908 142.261V1.3913H949.68C953.471 1.3913 956.414 3.13043 958.51 6.60869C960.65 9.97101 962.166 14.7826 963.058 21.0435C963.95 27.3043 964.396 34.5507 964.396 42.7826V98.7826C964.396 107.478 963.95 115.13 963.058 121.739C962.166 128.232 960.695 133.275 958.643 136.87C956.592 140.464 953.761 142.261 950.149 142.261H937.908ZM942.992 132.348H949.814C952.668 132.348 954.764 130.841 956.102 127.826C957.439 124.696 958.287 120.464 958.643 115.13C959 109.681 959.178 103.536 959.178 96.6956V44.1739C959.178 37.1015 958.933 31.1884 958.443 26.4348C957.997 21.5652 957.083 17.913 955.7 15.4783C954.363 12.9275 952.334 11.6522 949.614 11.6522H942.992V132.348Z" fill="#7F8192"/>
<path d="M986.367 142.261L973.658 1.3913H978.541L988.774 118.087L998.406 1.3913H1003.22L990.982 142.261H986.367Z" fill="#7F8192"/>
<path d="M1013.47 142.261V1.3913H1033.07V11.6522H1018.62V64.5217H1030.4V74.2609H1018.62V132.348H1033.2V142.261H1013.47Z" fill="#7F8192"/>
<path d="M1044.2 142.261V1.3913H1056.44C1059.83 1.3913 1062.49 2.84057 1064.4 5.73913C1066.36 8.52174 1067.77 12.6377 1068.62 18.087C1069.46 23.4203 1069.89 29.7971 1069.89 37.2174C1069.89 42.4348 1069.66 47.3623 1069.22 52C1068.77 56.6377 1068.01 60.5797 1066.94 63.8261C1065.87 67.0725 1064.36 69.2174 1062.4 70.2609L1070.69 142.261H1065.74L1057.78 73.0435H1049.29V142.261H1044.2ZM1049.29 63.3043H1056.18C1058.45 63.3043 1060.21 62.3188 1061.46 60.3478C1062.71 58.3768 1063.6 55.4783 1064.14 51.6522C1064.67 47.8261 1064.94 43.0145 1064.94 37.2174C1064.94 28.5217 1064.36 22.029 1063.2 17.7391C1062.04 13.4493 1059.74 11.3043 1056.31 11.3043H1049.29V63.3043Z" fill="#7F8192"/>
<path d="M1093.95 144C1091 144 1088.55 142.435 1086.59 139.304C1084.67 136.058 1083.22 131.594 1082.24 125.913C1081.26 120.116 1080.66 113.391 1080.44 105.739L1084.92 102.261C1085.14 108.058 1085.54 113.333 1086.12 118.087C1086.7 122.725 1087.62 126.435 1088.86 129.217C1090.11 131.884 1091.83 133.217 1094.01 133.217C1096.42 133.217 1098.3 131.594 1099.63 128.348C1100.97 125.101 1101.64 119.942 1101.64 112.87C1101.64 106.609 1101.04 101.217 1099.83 96.6956C1098.67 92.1739 1097.07 87.4203 1095.02 82.4348L1085.45 58.6087C1083.76 54.3188 1082.51 49.913 1081.71 45.3913C1080.91 40.7536 1080.5 35.7101 1080.5 30.2609C1080.5 20.5217 1081.62 13.0435 1083.85 7.82608C1086.08 2.60869 1089.04 0 1092.74 0C1094.66 0 1096.38 0.63768 1097.89 1.91304C1099.45 3.1884 1100.77 5.27536 1101.84 8.17391C1102.96 10.9565 1103.82 14.6087 1104.45 19.1304C1105.07 23.6522 1105.5 29.1594 1105.72 35.6522L1101.37 38.6087C1101.19 32.6956 1100.81 27.6522 1100.24 23.4783C1099.7 19.1884 1098.83 15.942 1097.63 13.7391C1096.47 11.5362 1094.84 10.4348 1092.74 10.4348C1090.51 10.4348 1088.69 11.942 1087.26 14.9565C1085.83 17.971 1085.12 22.6667 1085.12 29.0435C1085.12 32.8696 1085.39 36.3478 1085.92 39.4783C1086.5 42.6087 1087.5 45.971 1088.93 49.5652L1098.5 73.0435C1100.64 78.2609 1102.49 84.058 1104.05 90.4348C1105.61 96.8116 1106.39 104 1106.39 112C1106.39 119.072 1105.85 124.986 1104.78 129.739C1103.76 134.493 1102.31 138.087 1100.44 140.522C1098.56 142.841 1096.4 144 1093.95 144Z" fill="#7F8192"/>
<path d="M1117.15 142.261V1.3913H1136.75V11.6522H1122.3V64.5217H1134.08V74.2609H1122.3V132.348H1136.89V142.261H1117.15Z" fill="#7F8192"/>
<path d="M1183.15 142.261V1.3913H1202.75V11.6522H1188.3V64.5217H1200.07V74.2609H1188.3V132.348H1202.88V142.261H1183.15Z" fill="#7F8192"/>
<path d="M1213.88 142.261V1.3913H1233.34V11.3043H1218.96V64.3478H1230.93V74.087H1218.96V142.261H1213.88Z" fill="#7F8192"/>
<path d="M1243.69 142.261V1.3913H1263.16V11.3043H1248.78V64.3478H1260.75V74.087H1248.78V142.261H1243.69Z" fill="#7F8192"/>
<path d="M1273.44 142.261V1.3913H1293.04V11.6522H1278.59V64.5217H1290.36V74.2609H1278.59V132.348H1293.17V142.261H1273.44Z" fill="#7F8192"/>
<path d="M1316.74 144C1313.09 144 1310.26 142.029 1308.25 138.087C1306.29 134.145 1304.93 128.87 1304.17 122.261C1303.41 115.536 1303.03 108.116 1303.03 100V44C1303.03 35.3043 1303.41 27.6522 1304.17 21.0435C1304.97 14.4348 1306.38 9.27536 1308.38 5.56522C1310.39 1.85507 1313.18 0 1316.74 0C1320 0 1322.54 1.62319 1324.37 4.86956C1326.24 8.11594 1327.58 12.7536 1328.38 18.7826C1329.19 24.6956 1329.59 31.7681 1329.59 40V48.5217H1324.77V40.3478C1324.77 34.2029 1324.57 28.9275 1324.17 24.5217C1323.81 20.1159 1323.05 16.6956 1321.89 14.2609C1320.74 11.8261 1319.04 10.6087 1316.81 10.6087C1314.36 10.6087 1312.51 11.942 1311.26 14.6087C1310.06 17.1594 1309.23 20.8116 1308.78 25.5652C1308.38 30.3188 1308.18 35.8261 1308.18 42.0869V102.087C1308.18 109.043 1308.43 114.841 1308.92 119.478C1309.45 124.116 1310.35 127.594 1311.59 129.913C1312.84 132.232 1314.58 133.391 1316.81 133.391C1319.09 133.391 1320.78 132.116 1321.89 129.565C1323.05 127.014 1323.81 123.478 1324.17 118.957C1324.57 114.319 1324.77 108.928 1324.77 102.783V93.5652H1329.59V101.913C1329.59 110.145 1329.21 117.449 1328.45 123.826C1327.74 130.087 1326.44 135.014 1324.57 138.609C1322.74 142.203 1320.13 144 1316.74 144Z" fill="#7F8192"/>
<path d="M1348.25 142.261V11.6522H1338.02V1.3913H1363.3V11.6522H1353.33V142.261H1348.25Z" fill="#7F8192"/>
<path d="M1403.78 144C1400.16 144 1397.33 142.203 1395.28 138.609C1393.27 134.899 1391.85 129.797 1391 123.304C1390.2 116.696 1389.8 109.159 1389.8 100.696V42.2609C1389.8 33.6812 1390.22 26.2609 1391.07 20C1391.96 13.6232 1393.41 8.69565 1395.42 5.21739C1397.47 1.73913 1400.25 0 1403.78 0C1407.25 0 1410 1.73913 1412 5.21739C1414.05 8.69565 1415.5 13.6232 1416.35 20C1417.2 26.2609 1417.62 33.6812 1417.62 42.2609V100.87C1417.62 109.333 1417.2 116.812 1416.35 123.304C1415.55 129.681 1414.14 134.725 1412.14 138.435C1410.13 142.145 1407.34 144 1403.78 144ZM1403.78 133.391C1406.14 133.391 1407.95 132.174 1409.19 129.739C1410.44 127.188 1411.29 123.71 1411.74 119.304C1412.23 114.783 1412.47 109.565 1412.47 103.652V39.8261C1412.47 33.913 1412.23 28.7536 1411.74 24.3478C1411.29 19.942 1410.44 16.5797 1409.19 14.2609C1407.95 11.8261 1406.14 10.6087 1403.78 10.6087C1401.37 10.6087 1399.52 11.8261 1398.22 14.2609C1396.98 16.5797 1396.11 19.942 1395.62 24.3478C1395.17 28.7536 1394.95 33.913 1394.95 39.8261V103.652C1394.95 109.565 1395.17 114.783 1395.62 119.304C1396.11 123.71 1396.98 127.188 1398.22 129.739C1399.52 132.174 1401.37 133.391 1403.78 133.391Z" fill="#7F8192"/>
<path d="M1430.09 142.261V1.3913H1433.77L1451.02 110.783V1.3913H1455.44V142.261H1451.83L1434.5 31.6522V142.261H1430.09Z" fill="#7F8192"/>
<path d="M1495.14 142.261V95.4782L1482.9 1.3913H1487.85L1497.62 79.6522L1506.98 1.3913H1512L1500.09 95.4782V142.261H1495.14Z" fill="#7F8192"/>
<path d="M1534.72 144C1531.11 144 1528.28 142.203 1526.23 138.609C1524.22 134.899 1522.8 129.797 1521.95 123.304C1521.15 116.696 1520.75 109.159 1520.75 100.696V42.2609C1520.75 33.6812 1521.17 26.2609 1522.02 20C1522.91 13.6232 1524.36 8.69565 1526.36 5.21739C1528.42 1.73913 1531.2 0 1534.72 0C1538.2 0 1540.95 1.73913 1542.95 5.21739C1545 8.69565 1546.45 13.6232 1547.3 20C1548.15 26.2609 1548.57 33.6812 1548.57 42.2609V100.87C1548.57 109.333 1548.15 116.812 1547.3 123.304C1546.5 129.681 1545.09 134.725 1543.09 138.435C1541.08 142.145 1538.29 144 1534.72 144ZM1534.72 133.391C1537.09 133.391 1538.89 132.174 1540.14 129.739C1541.39 127.188 1542.24 123.71 1542.68 119.304C1543.17 114.783 1543.42 109.565 1543.42 103.652V39.8261C1543.42 33.913 1543.17 28.7536 1542.68 24.3478C1542.24 19.942 1541.39 16.5797 1540.14 14.2609C1538.89 11.8261 1537.09 10.6087 1534.72 10.6087C1532.32 10.6087 1530.47 11.8261 1529.17 14.2609C1527.92 16.5797 1527.06 19.942 1526.56 24.3478C1526.12 28.7536 1525.9 33.913 1525.9 39.8261V103.652C1525.9 109.565 1526.12 114.783 1526.56 119.304C1527.06 123.71 1527.92 127.188 1529.17 129.739C1530.47 132.174 1532.32 133.391 1534.72 133.391Z" fill="#7F8192"/>
<path d="M1574.28 144C1570.62 144 1567.77 142.319 1565.72 138.957C1563.71 135.478 1562.33 130.725 1561.57 124.696C1560.81 118.551 1560.44 111.594 1560.44 103.826V1.3913H1565.39V104.174C1565.39 109.623 1565.61 114.609 1566.05 119.13C1566.54 123.536 1567.44 127.014 1568.73 129.565C1570.02 132.116 1571.87 133.391 1574.28 133.391C1576.6 133.391 1578.41 132.116 1579.7 129.565C1580.99 126.899 1581.88 123.362 1582.37 118.957C1582.91 114.551 1583.18 109.623 1583.18 104.174V1.3913H1588.06V103.826C1588.06 111.594 1587.66 118.551 1586.86 124.696C1586.05 130.725 1584.65 135.478 1582.64 138.957C1580.64 142.319 1577.85 144 1574.28 144Z" fill="#7F8192"/>
<path d="M1600.98 142.261V1.3913H1613.22C1616.6 1.3913 1619.26 2.84057 1621.18 5.73913C1623.14 8.52174 1624.54 12.6377 1625.39 18.087C1626.24 23.4203 1626.66 29.7971 1626.66 37.2174C1626.66 42.4348 1626.44 47.3623 1625.99 52C1625.55 56.6377 1624.79 60.5797 1623.72 63.8261C1622.65 67.0725 1621.13 69.2174 1619.17 70.2609L1627.46 142.261H1622.51L1614.55 73.0435H1606.06V142.261H1600.98ZM1606.06 63.3043H1612.95C1615.22 63.3043 1616.98 62.3188 1618.23 60.3478C1619.48 58.3768 1620.37 55.4783 1620.91 51.6522C1621.44 47.8261 1621.71 43.0145 1621.71 37.2174C1621.71 28.5217 1621.13 22.029 1619.97 17.7391C1618.81 13.4493 1616.52 11.3043 1613.08 11.3043H1606.06V63.3043Z" fill="#7F8192"/>
<path d="M1656.88 142.261V1.3913H1668.52C1670.97 1.3913 1673.05 2.20289 1674.74 3.82608C1676.43 5.44927 1677.79 7.82608 1678.82 10.9565C1679.85 14.087 1680.58 17.8551 1681.03 22.2609C1681.52 26.5507 1681.76 31.3043 1681.76 36.5217C1681.76 41.0435 1681.54 45.4493 1681.09 49.7391C1680.69 53.913 1680 57.5072 1679.02 60.5217C1678.04 63.4203 1676.66 65.3333 1674.87 66.2609C1676.97 67.7681 1678.62 70.3768 1679.82 74.087C1681.03 77.6812 1681.85 81.913 1682.3 86.7826C1682.79 91.5362 1683.03 96.4638 1683.03 101.565C1683.03 107.13 1682.83 112.406 1682.43 117.391C1682.07 122.261 1681.41 126.551 1680.43 130.261C1679.49 133.971 1678.2 136.928 1676.55 139.13C1674.9 141.217 1672.8 142.261 1670.26 142.261H1656.88ZM1661.96 132.348H1669.26C1672.78 132.348 1675.12 129.855 1676.28 124.87C1677.48 119.884 1678.08 112.116 1678.08 101.565C1678.08 95.884 1677.82 90.8406 1677.28 86.4348C1676.75 82.029 1675.83 78.6087 1674.54 76.1739C1673.29 73.6232 1671.57 72.3478 1669.39 72.3478H1661.96V132.348ZM1661.96 62.087H1669.32C1671.42 62.087 1673.02 61.0435 1674.14 58.9565C1675.25 56.7536 1676.03 53.7971 1676.48 50.0869C1676.92 46.2609 1677.15 41.7391 1677.15 36.5217C1677.15 30.8406 1676.84 26.1449 1676.21 22.4348C1675.63 18.7246 1674.61 16 1673.13 14.2609C1671.66 12.5217 1669.54 11.6522 1666.78 11.6522H1661.96V62.087Z" fill="#7F8192"/>
<path d="M1707.31 144C1703.7 144 1700.87 142.203 1698.82 138.609C1696.81 134.899 1695.38 129.797 1694.54 123.304C1693.73 116.696 1693.33 109.159 1693.33 100.696V42.2609C1693.33 33.6812 1693.75 26.2609 1694.6 20C1695.49 13.6232 1696.94 8.69565 1698.95 5.21739C1701 1.73913 1703.79 0 1707.31 0C1710.79 0 1713.53 1.73913 1715.54 5.21739C1717.59 8.69565 1719.04 13.6232 1719.88 20C1720.73 26.2609 1721.16 33.6812 1721.16 42.2609V100.87C1721.16 109.333 1720.73 116.812 1719.88 123.304C1719.08 129.681 1717.68 134.725 1715.67 138.435C1713.66 142.145 1710.88 144 1707.31 144ZM1707.31 133.391C1709.67 133.391 1711.48 132.174 1712.73 129.739C1713.98 127.188 1714.82 123.71 1715.27 119.304C1715.76 114.783 1716.01 109.565 1716.01 103.652V39.8261C1716.01 33.913 1715.76 28.7536 1715.27 24.3478C1714.82 19.942 1713.98 16.5797 1712.73 14.2609C1711.48 11.8261 1709.67 10.6087 1707.31 10.6087C1704.9 10.6087 1703.05 11.8261 1701.76 14.2609C1700.51 16.5797 1699.64 19.942 1699.15 24.3478C1698.7 28.7536 1698.48 33.913 1698.48 39.8261V103.652C1698.48 109.565 1698.7 114.783 1699.15 119.304C1699.64 123.71 1700.51 127.188 1701.76 129.739C1703.05 132.174 1704.9 133.391 1707.31 133.391Z" fill="#7F8192"/>
<path d="M1733.62 142.261V1.3913H1745.39C1749.19 1.3913 1752.13 3.13043 1754.22 6.60869C1756.36 9.97101 1757.88 14.7826 1758.77 21.0435C1759.66 27.3043 1760.11 34.5507 1760.11 42.7826V98.7826C1760.11 107.478 1759.66 115.13 1758.77 121.739C1757.88 128.232 1756.41 133.275 1754.36 136.87C1752.31 140.464 1749.47 142.261 1745.86 142.261H1733.62ZM1738.71 132.348H1745.53C1748.38 132.348 1750.48 130.841 1751.82 127.826C1753.15 124.696 1754 120.464 1754.36 115.13C1754.71 109.681 1754.89 103.536 1754.89 96.6956V44.1739C1754.89 37.1015 1754.65 31.1884 1754.16 26.4348C1753.71 21.5652 1752.8 17.913 1751.41 15.4783C1750.08 12.9275 1748.05 11.6522 1745.33 11.6522H1738.71V132.348Z" fill="#7F8192"/>
<path d="M1781.14 142.261V95.4782L1768.9 1.3913H1773.85L1783.62 79.6522L1792.98 1.3913H1798L1786.09 95.4782V142.261H1781.14Z" fill="#7F8192"/>
</svg>
