<svg width="32" height="46" viewBox="0 0 32 46" fill="none" xmlns="http://www.w3.org/2000/svg">
<path d="M13.4993 44.6828C12.9199 44.3397 12.3773 43.938 11.8799 43.4841C9.26755 41.1287 7.66072 37.9063 6.24202 35.0675C4.14003 30.8467 1.74102 26.0617 0.799786 20.8896C0.578748 19.6399 0.417491 18.2283 1.0461 17.0035C1.17852 16.7177 1.36644 16.4611 1.59894 16.2485C1.83143 16.036 2.10387 15.8719 2.40039 15.7656C3.34791 15.4655 4.37468 15.9124 5.453 17.096C8.07595 19.9938 10.0852 23.3925 11.3599 27.0874C11.3814 27.1503 11.3903 27.2169 11.3861 27.2832C11.3819 27.3495 11.3647 27.4144 11.3355 27.4741C11.3062 27.5338 11.2655 27.5872 11.2156 27.6311C11.1658 27.6751 11.1077 27.7088 11.0448 27.7303C10.9819 27.7518 10.9154 27.7607 10.8491 27.7566C10.7827 27.7524 10.7178 27.7352 10.6581 27.7059C10.5984 27.6767 10.5451 27.6359 10.5011 27.5861C10.4572 27.5362 10.4235 27.4781 10.402 27.4152C9.17358 23.8491 7.23474 20.5692 4.70268 17.7737C3.91642 16.9102 3.24542 16.5565 2.70407 16.7264C2.36732 16.8693 2.0966 17.1335 1.94563 17.4667C1.45745 18.4192 1.59546 19.6378 1.7926 20.7054C2.73987 25.7407 5.08613 30.4616 7.16127 34.622C8.54114 37.3823 10.099 40.5147 12.5732 42.7399C13.3264 43.4753 14.2421 44.0232 15.2462 44.3392C16.7005 44.7356 18.272 44.375 19.763 43.9791C20.9983 43.7164 22.1761 43.2333 23.2401 42.553C24.2758 41.7988 25.1017 40.6598 25.9324 38.8616C27.4243 35.5487 28.1631 31.9077 28.8772 28.387C29.556 25.3404 30.0551 22.2564 30.372 19.1512C30.4717 18.5295 30.4218 17.893 30.2266 17.2943C30.1444 17.0602 29.9894 16.8585 29.7843 16.7189C29.5792 16.5793 29.3347 16.509 29.0868 16.5184C28.7262 16.6361 28.4126 16.8659 28.1919 17.1744C28.136 17.2712 28.0381 17.3436 27.9654 17.4307C27.903 19.0036 27.6779 20.5658 27.2937 22.0924C27.012 23.2314 26.5375 24.6461 25.4133 25.4951C25.315 25.5758 25.1889 25.6147 25.0622 25.6034C24.9354 25.5921 24.8182 25.5316 24.7356 25.4348C24.0675 24.7068 24.1559 23.6694 24.2935 22.9354C24.6834 20.774 25.6066 18.7441 26.9794 17.0298C27.0031 15.9652 26.9484 14.9004 26.8158 13.8439C26.793 13.4318 26.6425 13.0371 26.3851 12.7144C26.1972 12.5734 25.9718 12.4908 25.7372 12.4771C25.5027 12.4635 25.2693 12.5192 25.0662 12.6374C24.5511 12.9436 24.1149 13.3662 23.7927 13.8715C23.2088 14.6885 22.6892 15.5496 22.2384 16.447C22.2616 17.1169 22.249 17.7875 22.2005 18.4561C22.1181 19.6484 21.888 21.3782 20.8077 22.6565C20.7562 22.72 20.6896 22.7694 20.6139 22.8002C20.5382 22.8311 20.456 22.8423 20.3748 22.833C20.2895 22.8279 20.207 22.8005 20.1357 22.7534C20.0644 22.7063 20.0068 22.6413 19.9686 22.5648C19.4616 21.6549 19.6465 20.6059 19.8873 19.7126C20.2174 18.5153 20.6553 17.3503 21.1955 16.232C21.1705 15.2498 21.0676 14.2712 20.8879 13.3053C20.6909 12.3443 20.1819 11.2145 19.3675 11.2549C18.8835 11.2672 18.4212 11.6791 17.9015 12.5404C17.5638 13.1253 17.2286 13.706 16.9372 14.3176C17.0584 16.7216 16.8106 19.3277 15.4516 21.4773C15.4049 21.5542 15.3377 21.6165 15.2576 21.6575C15.1775 21.6984 15.0877 21.7163 14.998 21.7092C14.9127 21.7092 14.8289 21.6867 14.7551 21.6441C14.6812 21.6014 14.6199 21.5401 14.5772 21.4662C13.8789 20.0812 14.2505 18.4948 14.6603 17.2895C15.0154 16.1994 15.443 15.1342 15.9401 14.1011C15.8898 13.3427 15.8064 12.5932 15.7084 11.869C15.3356 9.13661 14.7809 6.4322 14.0479 3.77375C13.7514 2.69366 13.2798 1.41149 12.2632 1.1219C11.1653 0.807845 9.9828 1.90365 9.40226 3.16185C8.66933 4.85702 8.25275 6.67199 8.17307 8.51711C7.8817 12.3331 8.21681 16.171 9.1651 19.8788C9.19878 20.0151 9.17695 20.1591 9.10442 20.2793C9.03189 20.3994 8.9146 20.4858 8.77835 20.5195C8.64209 20.5532 8.49805 20.5314 8.37789 20.4588C8.25773 20.3863 8.1713 20.269 8.13763 20.1328C7.1658 16.3094 6.82533 12.3529 7.12969 8.41965C7.21747 6.44951 7.66653 4.51226 8.45449 2.70442C9.21546 1.124 10.8125 -0.349645 12.5267 0.140725C14.0248 0.568058 14.6391 2.15701 15.005 3.49596C15.7434 6.2082 16.3007 8.96653 16.6732 11.7527C16.7046 11.9897 16.7361 12.2267 16.7628 12.4721L17.0057 12.0513C17.4406 11.2981 18.1814 10.3064 19.311 10.2741C20.7413 10.2358 21.5597 11.7238 21.8518 13.1324C21.9544 13.6349 22.0395 14.1385 22.1006 14.645C22.3654 14.1863 22.6663 13.7429 22.9774 13.311C23.3834 12.6449 23.9485 12.0901 24.622 11.6965C25.0119 11.4811 25.4582 11.39 25.9013 11.4353C26.3445 11.4805 26.7632 11.6601 27.1014 11.9498C27.5287 12.4415 27.7748 13.0647 27.7987 13.7157C27.8874 14.4626 27.9427 15.209 27.9647 15.9548C28.238 15.7264 28.5649 15.5714 28.9147 15.5046C29.3817 15.46 29.8505 15.5703 30.2486 15.8184C30.6468 16.0665 30.9523 16.4387 31.118 16.8776C31.3836 17.6253 31.4604 18.4271 31.3414 19.2116C31.028 22.3514 30.5261 25.4696 29.8384 28.5492C29.1143 32.1259 28.3656 35.8229 26.8238 39.2416C26.2212 40.5768 25.3466 42.2375 23.8218 43.3432C22.6621 44.1067 21.3712 44.6492 20.0142 44.9433C18.3881 45.379 16.6627 45.763 14.9707 45.3023C14.4553 45.1608 13.9607 44.9526 13.4993 44.6828ZM15.8897 16.7538C15.7902 17.033 15.6925 17.3188 15.5973 17.6004C15.3497 18.2951 15.2126 19.0244 15.1911 19.7616C15.5762 18.8006 15.8118 17.7862 15.8897 16.7538ZM26.8145 19.016C26.0422 20.2896 25.5107 21.6944 25.2465 23.1602C25.1735 23.5233 25.1651 23.8964 25.2217 24.2624C25.7528 23.5433 26.1177 22.7155 26.2902 21.8384C26.532 20.9067 26.7096 19.9594 26.8217 19.0034L26.8145 19.016ZM21.14 19.224C21.0575 19.4737 20.9835 19.7283 20.9136 19.9854C20.8276 20.2782 20.7638 20.577 20.7228 20.8795C20.9267 20.346 21.0668 19.7903 21.14 19.224Z" fill="#E10B17"/>
</svg>
