<svg width="400" height="411" viewBox="0 0 400 411" fill="none" xmlns="http://www.w3.org/2000/svg">
<path d="M94.2972 322.939C96.4328 305.465 98.5508 287.957 99.3803 270.377C99.8569 260.352 99.9098 250.204 97.6153 240.373C95.3915 231.107 91.1026 222.494 86.8137 214.004C78.73 198.013 70.4935 182.129 62.1039 166.35C54.9911 153.148 47.7193 139.645 45.266 124.767C44.6306 120.831 44.3659 116.595 46.1838 113.047C48.0017 109.5 52.5554 107.117 56.0854 108.882C57.5319 109.728 58.7831 110.871 59.7565 112.235C71.1936 126.232 76.0296 138.057 85.8076 153.253C90.9331 160.214 97.3509 166.122 104.711 170.656C100.739 140.228 76.2061 115.324 72.835 84.8075C72.1114 78.2948 73.0468 70.4759 78.7477 67.1577C80.0386 66.3589 81.5695 66.0402 83.0719 66.2576C85.9488 66.8047 87.6255 69.7875 88.8963 72.3821L124.531 145.823C126.296 138.233 122.502 130.626 119.236 123.531C114.842 113.7 109.547 94.762 109.547 94.762C105.055 78.8334 105.492 61.9182 110.8 46.2427C117.101 29.2636 129.509 33.1642 131.644 39.1651C133.78 45.1661 133.233 51.7142 132.95 58.0681C131.856 82.9896 141.987 111.017 149.682 134.774L152.206 145.364C157.378 137.58 168.462 79.9362 172.468 74.8707L188.459 54.697C191.036 51.4494 194.46 47.8312 198.572 48.5195C202.985 49.2785 204.961 54.5911 204.908 59.1094C204.732 70.8465 200.231 86.2901 191.989 95.9092L177.869 164.267C177.869 164.267 179.634 190.212 180.764 194.783" stroke="black" stroke-width="1.2" stroke-linecap="round" stroke-linejoin="round"/>
<path d="M132.439 247.908C133.311 236.407 138.115 225.556 146.044 217.18C153.974 208.803 164.545 203.412 175.982 201.913L177.429 200.748C184.612 191.023 192.837 181.563 195.873 176.232C198.732 171.22 208.051 152.035 212.252 147.993C216.453 143.951 222.259 141.374 227.96 142.239C229.009 142.346 230.012 142.723 230.872 143.333C233.043 145.098 232.92 148.275 232.479 150.976C231.015 158.816 229.1 166.566 226.742 174.185C225.119 179.833 207.716 208.09 205.88 213.65C198.291 236.454 195.926 245.208 181.576 264.464L176.493 269.529C170.898 294.645 176.493 320.961 173.158 346.465" stroke="black" stroke-width="1.2" stroke-linecap="round" stroke-linejoin="round"/>
<path d="M114.77 87.2084C116.82 88.451 119.204 89.0297 121.596 88.8655C123.987 88.7012 126.27 87.8019 128.131 86.2906" stroke="black" stroke-width="1.2" stroke-linecap="round" stroke-linejoin="round"/>
<path d="M121.001 97.7285C122.93 97.862 124.833 97.2276 126.296 95.9635" stroke="black" stroke-width="1.2" stroke-linecap="round" stroke-linejoin="round"/>
<path d="M89.6191 115.942C91.4181 115.777 93.1534 115.193 94.6859 114.237C96.2185 113.281 97.5056 111.978 98.444 110.435" stroke="black" stroke-width="1.2" stroke-linecap="round" stroke-linejoin="round"/>
<path d="M64.522 146.209C66.0385 145.821 67.4537 145.11 68.6718 144.127C69.8899 143.143 70.8823 141.909 71.5819 140.509" stroke="black" stroke-width="1.2" stroke-linecap="round" stroke-linejoin="round"/>
<path d="M73.3467 153.732L75.1117 151.967" stroke="black" stroke-width="1.2" stroke-linecap="round" stroke-linejoin="round"/>
<path d="M230.819 143.423C224.201 143.547 220.459 156.219 220.459 161.197C220.459 167.215 221.747 170.339 228.543 167.762" stroke="black" stroke-width="1.2" stroke-linecap="round" stroke-linejoin="round"/>
<path d="M109.034 195.947C114.873 196.234 120.674 197.05 126.366 198.383C132.085 199.73 137.331 202.603 141.545 206.696" stroke="black" stroke-linecap="round" stroke-linejoin="round"/>
<path d="M174.18 307.51H173.951V324.772H174.251C186.747 325.654 183.676 335.061 181.028 336.826C176.175 340.092 169.132 341.027 163.502 341.504C151.992 342.447 140.409 341.973 129.014 340.092C118.154 338.543 107.739 334.73 98.445 328.902C93.8384 325.831 88.2964 321.471 86.4255 316.035C86.0725 314.57 86.0618 313.043 86.3942 311.573C86.7265 310.102 87.3931 308.729 88.3421 307.558C89.2912 306.387 90.4972 305.45 91.8666 304.821C93.2361 304.191 94.7321 303.885 96.2388 303.927L98.0037 284.83C76.3651 286.189 63.0571 314.129 74.0706 329.908C86.4255 347.558 109.37 355.147 129.703 357.9C149.294 360.548 177.357 363.054 193.648 349.393C209.639 336.015 193.754 309.981 174.18 307.51Z" fill="black" stroke="black" stroke-width="1.2" stroke-linecap="round" stroke-linejoin="round"/>
<path d="M92.7616 341.263L87.0254 381.416" stroke="black" stroke-width="1.2" stroke-linecap="round" stroke-linejoin="round"/>
<path d="M173.068 354.056L172.627 389.356" stroke="black" stroke-width="1.2" stroke-linecap="round" stroke-linejoin="round"/>
<path d="M180.023 64.9887C181.4 68.6951 200.532 54.0281 199.544 48.8744" stroke="black" stroke-width="1.2" stroke-linecap="round" stroke-linejoin="round"/>
<path d="M207.821 58.2991L330.011 60.7877V142.242H206.056V62.588L207.821 58.2991Z" fill="black" stroke="black" stroke-width="1.2" stroke-linecap="round" stroke-linejoin="round"/>
<path d="M207.803 139.771L331.758 139.771V58.3171L207.803 58.3171V139.771Z" fill="#F2F2F7" stroke="black" stroke-width="1.2" stroke-linecap="round" stroke-linejoin="round"/>
<path fill-rule="evenodd" clip-rule="evenodd" d="M238.708 85.6571C240.69 87.6369 241.807 90.3214 241.815 93.123C244.623 93.123 247.317 94.2387 249.303 96.2247C251.289 98.2107 252.404 100.904 252.404 103.713C252.404 106.521 251.289 109.215 249.303 111.201C247.317 113.187 244.623 114.303 241.815 114.303H220.635V82.5331H231.225C232.616 82.5366 233.993 82.8143 235.277 83.3504C236.561 83.8864 237.727 84.6703 238.708 85.6571ZM223.318 111.62H241.815C243.921 111.641 245.95 110.824 247.454 109.35C248.958 107.875 249.815 105.863 249.836 103.757C249.857 101.651 249.041 99.622 247.566 98.1176C246.092 96.6132 244.08 95.7562 241.973 95.7351H241.409C241.179 96.5954 240.847 97.425 240.42 98.2061C239.497 99.8526 238.158 101.228 236.537 102.195C234.932 103.141 233.105 103.646 231.242 103.66H223.318V111.62ZM235.814 99.6004C237.154 98.6522 238.17 97.3153 238.726 95.7704H231.242C229.6 95.7688 227.998 96.2774 226.657 97.226C225.317 98.1745 224.304 99.5162 223.759 101.065H231.242C232.88 101.057 234.476 100.545 235.814 99.6004ZM231.242 85.1982H223.318V96.7059C223.476 96.5294 223.653 96.3352 223.847 96.1587C224.155 95.8471 224.486 95.5581 224.835 95.2939C226.676 93.8893 228.927 93.1267 231.242 93.123H239.167V92.6464C239.05 90.6299 238.165 88.7346 236.695 87.3496C235.225 85.9646 233.28 85.1948 231.26 85.1982H231.242Z" fill="black"/>
<path d="M178.434 90.7582C182.232 93.2412 186.626 94.6612 191.159 94.8706" stroke="black" stroke-width="1.2" stroke-linecap="round" stroke-linejoin="round"/>
<path d="M333.716 132.745V98.0098L297.975 56.0033H268.394L333.716 132.745Z" fill="black"/>
<path d="M296.794 76.4247L261.212 77.0071L276.214 86.7145L264.442 98.4693L309.749 91.7094L296.794 76.4247Z" fill="black"/>
<path d="M313.879 98.9825L297.094 130.381L295.311 112.608L279.461 117.691L306.166 80.4855L313.879 98.9825Z" fill="black"/>
<path d="M277.538 55.7757C284.757 48.151 292.699 42.1854 301.965 39.0084C307.949 48.8747 311.426 61.7061 313.773 75.7553L297.588 82.1092C293.224 71.7858 286.328 62.729 277.538 55.7757Z" fill="black" stroke="white" stroke-width="0.94" stroke-miterlimit="10"/>
<path d="M318.75 82.6913C317.585 77.6964 353.926 97.729 355.144 103.218C356.556 109.607 335.729 123.727 334.846 120.268C328.281 109.268 319.367 99.8545 308.742 92.6988L318.75 82.6913Z" fill="black" stroke="white" stroke-width="0.94" stroke-miterlimit="10"/>
<path d="M318.785 77.2879C323.833 83.9772 323.392 89.6428 320.303 92.9609C316.226 97.3204 309.078 99.4914 305.636 95.4142L299.794 88.9721C295.682 85.8657 298.241 79.4588 302.653 75.4876C306.519 72.0283 312.414 70.4221 318.785 77.2879Z" fill="black" stroke="white" stroke-width="0.9" stroke-miterlimit="10"/>
</svg>
