<svg width="129" height="186" viewBox="0 0 129 186" fill="none" xmlns="http://www.w3.org/2000/svg">
<path d="M74.579 54.9497C74.5667 54.8401 74.5231 54.7364 74.4532 54.6511C74.3834 54.5657 74.2904 54.5024 74.1854 54.4687C74.0804 54.435 73.9679 54.4325 73.8615 54.4612C73.755 54.49 73.6592 54.549 73.5855 54.631C69.571 59.233 63.8947 62.0543 57.8023 62.4758C53.894 62.7194 48.8142 61.6416 46.2836 57.9114C46.1991 57.7871 46.0687 57.7015 45.921 57.6734C45.7734 57.6452 45.6206 57.6769 45.4963 57.7614C45.372 57.8459 45.2864 57.9764 45.2583 58.124C45.2302 58.2717 45.2619 58.4244 45.3464 58.5487C47.7176 62.0446 52.3944 63.9379 57.8679 63.6004C63.7848 63.2186 69.3492 60.6535 73.4824 56.4024C73.3575 59.7444 72.2422 62.9739 70.278 65.6806C68.3139 68.3874 65.5895 70.4493 62.451 71.6045C60.4708 72.3299 58.3243 72.473 56.2652 72.0169C55.2697 71.7796 54.3413 71.3187 53.5504 70.6691C52.7596 70.0196 52.1271 69.1984 51.7009 68.2679C51.6335 68.1473 51.5241 68.0557 51.3936 68.0106C51.263 67.9655 51.1204 67.97 50.993 68.0233C50.8655 68.0766 50.7622 68.1749 50.7026 68.2996C50.643 68.4242 50.6314 68.5664 50.6699 68.699C51.1533 69.7952 51.8852 70.7638 52.8075 71.5283C53.7298 72.2928 54.8173 72.8323 55.9841 73.1041C56.808 73.3134 57.6552 73.4174 58.5053 73.4134C59.9664 73.3964 61.4154 73.1464 62.7978 72.673C66.4165 71.3939 69.5219 68.9741 71.6466 65.7777C73.7713 62.5814 74.8004 58.7814 74.579 54.9497Z" fill="black"/>
<path d="M55.403 55.1759C56.2456 55.4261 57.1201 55.5524 57.9991 55.5508C59.7175 55.5531 61.4035 55.083 62.8728 54.1918C62.9644 54.134 63.0378 54.0513 63.0842 53.9534C63.1307 53.8555 63.1484 53.7464 63.1352 53.6388C63.122 53.5334 63.0788 53.4341 63.0106 53.3527C62.9425 53.2712 62.8523 53.2111 62.7509 53.1796C62.3814 52.973 62.0986 52.6403 61.9543 52.2423C59.6352 47.9455 58.8548 42.985 59.7424 38.1837C59.7573 38.111 59.7573 38.036 59.7426 37.9632C59.7279 37.8905 59.6987 37.8214 59.6567 37.7602C59.6147 37.699 59.5608 37.6468 59.4983 37.6069C59.4357 37.5669 59.3657 37.5399 59.2925 37.5276C59.1462 37.5027 58.9959 37.5358 58.8734 37.6197C58.751 37.7037 58.666 37.832 58.6364 37.9775C57.7016 43.0373 58.5216 48.2647 60.9608 52.7953C61.1185 53.0952 61.307 53.3779 61.5232 53.6388C59.7122 54.4914 57.6518 54.6514 55.731 54.0887C55.5868 54.0479 55.4324 54.0653 55.301 54.1371C55.1695 54.209 55.0715 54.3296 55.0281 54.473C55.0064 54.5437 54.9989 54.6181 55.006 54.6917C55.0132 54.7654 55.0347 54.837 55.0696 54.9023C55.1044 54.9676 55.1518 55.0253 55.209 55.0723C55.2662 55.1193 55.3321 55.1545 55.403 55.1759Z" fill="black"/>
<path d="M49.6209 46.4505C50.7456 46.4505 51.6453 44.9415 51.6453 43.067C51.6453 41.1926 50.7081 39.6836 49.6209 39.6836C48.5337 39.6836 47.5964 41.2394 47.5964 43.1139C47.5964 44.9884 48.5056 46.4505 49.6209 46.4505Z" fill="black"/>
<path d="M68.8814 46.4505C69.9994 46.4505 70.9058 44.9357 70.9058 43.067C70.9058 41.1984 69.9994 39.6836 68.8814 39.6836C67.7633 39.6836 66.8569 41.1984 66.8569 43.067C66.8569 44.9357 67.7633 46.4505 68.8814 46.4505Z" fill="black"/>
<path d="M113.906 8.74609L94.2895 19.4963L85.1045 13.3011C86.7353 15.4942 92.2931 30.2464 92.2931 30.2464L113.906 8.74609Z" fill="black"/>
<path d="M84.739 13.0558L85.1045 13.2995C84.9452 13.1214 84.814 12.9808 84.739 13.0558Z" fill="black"/>
<path d="M104.018 82.7398C103.786 81.83 103.358 80.9822 102.763 80.2561C101.825 79.2345 99.7071 78.7846 98.2263 78.6346C98.926 77.3705 99.4226 76.0042 99.6977 74.5858C100.504 70.2651 98.7605 65.785 95.3864 63.6856C94.7539 63.2561 94.0394 62.962 93.2878 62.8217C92.5362 62.6814 91.7638 62.6979 91.0189 62.8702V38.9987C93.0487 39.258 95.0928 39.3895 97.1391 39.3923C114.619 39.3923 128.846 30.5635 128.846 19.7102C128.846 8.85694 114.619 0 97.1391 0C79.6595 0 65.4322 8.8382 65.4322 19.6821C65.4258 20.6793 65.539 21.6736 65.7696 22.6438H36.6401C35.8478 22.6429 35.0636 22.8029 34.3351 23.1143C33.6065 23.4256 32.9489 23.8817 32.402 24.4549C31.855 25.0281 31.4303 25.7065 31.1535 26.4488C30.8767 27.1912 30.7536 27.982 30.7917 28.7733C30.3324 43.0944 30.1637 55.3442 30.2668 68.1375C19.526 79.3001 15.4209 86.8824 9.47878 106.415C5.5986 119.161 6.1422 129.246 6.66705 138.993C7.3325 151.29 7.96982 162.902 0.209454 179.294C0.144996 179.429 0.136426 179.583 0.185624 179.724C0.234822 179.864 0.33777 179.98 0.471881 180.044C0.548065 180.08 0.631218 180.1 0.715564 180.101C0.821121 180.099 0.92428 180.069 1.01361 180.013C1.10294 179.956 1.17496 179.877 1.22168 179.782C9.10388 163.174 8.46656 151.421 7.78237 138.984C7.27626 129.339 6.72329 119.32 10.5472 106.761C16.3488 87.6884 20.1633 80.4342 30.2762 69.7683C30.3418 76.2166 30.4824 82.8335 30.6792 89.9565C30.684 90.0389 30.7067 90.1192 30.7455 90.192C30.7843 90.2648 30.8384 90.3284 30.9041 90.3783V90.6595C30.5199 90.7157 30.1262 90.7813 29.742 90.8657C23.7061 92.1778 18.3076 97.2014 14.9335 104.643C12.806 109.329 12.0375 113.678 12.6654 117.502C12.6855 117.635 12.7523 117.756 12.8536 117.843C12.955 117.931 13.0844 117.979 13.2184 117.98H13.284C13.4293 117.953 13.5584 117.87 13.644 117.749C13.7296 117.629 13.7652 117.48 13.7432 117.333C13.5261 115.948 13.4883 114.539 13.6308 113.144C13.8182 111.423 14.1986 109.728 14.7648 108.092C15.0929 107.155 15.4771 106.124 15.927 105.112C19.1511 97.9981 24.2685 93.2088 29.9856 91.9903C32.829 91.509 35.7271 91.4427 38.5895 91.7935C40.3328 91.9247 42.1511 92.0653 44.0068 92.234L45.572 92.3934C45.572 92.5058 45.572 92.6183 45.572 92.7308C45.5826 93.5352 45.7714 94.3273 46.1247 95.05C46.4779 95.7728 46.987 96.4083 47.6152 96.9109C48.1847 97.3785 48.8153 97.7664 49.4897 98.0637C50.4919 98.4913 51.5387 98.8057 52.6107 99.0009C55.3706 99.5143 58.173 99.7654 60.9803 99.7507H62.0206C61.8349 101.176 61.1745 102.496 60.1461 103.5C58.2716 105.309 55.5349 106.011 53.3886 106.424C48.8939 107.284 44.2855 107.373 39.7611 106.686C38.8238 106.546 37.8866 106.377 36.9494 106.171L36.7619 106.068C36.6381 106.021 36.5015 106.021 36.3776 106.068C35.2717 105.796 34.1657 105.505 33.0879 105.13C32.9462 105.083 32.7916 105.094 32.658 105.161C32.5244 105.228 32.4228 105.345 32.3756 105.487C32.3284 105.628 32.3394 105.783 32.4062 105.917C32.473 106.05 32.5901 106.152 32.7318 106.199C33.997 106.611 35.2717 106.949 36.5651 107.239C44.2224 110.988 49.4428 117.774 50.2113 124.897C50.5408 128.825 49.7615 132.767 47.962 136.275C46.2227 139.83 43.8502 143.037 40.9608 145.741C40.89 145.82 40.8429 145.917 40.8249 146.021C40.8068 146.125 40.8185 146.233 40.8587 146.33C40.8988 146.428 40.9657 146.513 41.0518 146.574C41.1378 146.636 41.2394 146.672 41.345 146.678C41.4905 146.68 41.6313 146.627 41.7387 146.528C44.8801 143.59 47.4258 140.074 49.2366 136.172C49.6115 135.328 49.9395 134.485 50.2207 133.632C50.5178 132.71 50.7619 131.771 50.9518 130.82H84.2614C85.8996 130.82 87.4711 130.171 88.6321 129.016C89.7931 127.86 90.4491 126.291 90.4565 124.653V119.395C90.972 119.217 91.4688 119.03 91.9655 118.824C93.1397 118.334 94.274 117.755 95.3583 117.09C87.9822 137.775 73.0051 159.397 59.0589 159.631C58.9469 159.636 58.8386 159.673 58.7471 159.738C58.6557 159.803 58.5849 159.893 58.5434 159.997L49.096 185.03C49.069 185.1 49.056 185.174 49.0579 185.249C49.0598 185.323 49.0765 185.397 49.107 185.465C49.1375 185.533 49.1813 185.594 49.2357 185.645C49.2901 185.696 49.3542 185.735 49.4241 185.761C49.4894 185.77 49.5556 185.77 49.6209 185.761C49.7351 185.761 49.8466 185.726 49.9403 185.661C50.0341 185.595 50.1057 185.503 50.1457 185.396L59.4619 160.709C74.111 160.072 89.6505 137.353 96.9048 116.087C98.722 114.78 100.306 113.177 101.591 111.344C103.887 108.036 105.096 103.106 102.603 99.5539C102.325 99.1316 101.955 98.7785 101.519 98.5218C101.084 98.2651 100.595 98.1116 100.091 98.0731C102.009 96.0702 103.377 93.607 104.065 90.9212C104.753 88.2354 104.737 85.4176 104.018 82.7398ZM91.525 117.821C87.8253 119.278 83.9049 120.095 79.9313 120.239C78.654 120.329 77.3714 120.307 76.098 120.173C78.2911 119.358 81.6371 117.774 82.9586 115.403C83.2544 114.9 83.4414 114.341 83.5076 113.761C83.5738 113.182 83.5177 112.594 83.3429 112.038C82.1338 108.036 76.904 108.111 73.6424 108.57C75.43 107.733 77.3211 107.137 79.2659 106.799C79.3639 106.777 79.454 106.729 79.5267 106.659C79.5993 106.59 79.6517 106.502 79.6782 106.405C82.0764 106.2 84.4473 105.751 86.7544 105.065C90.7846 103.959 95.3771 102.403 98.9386 99.2915C99.4449 99.1152 99.9954 99.1116 100.504 99.2812C101.013 99.4507 101.451 99.7839 101.75 100.229C103.934 103.34 102.809 107.727 100.729 110.735C98.3967 113.924 95.2041 116.382 91.525 117.821ZM66.5568 19.6821C66.5568 9.43803 80.2781 1.10595 97.1391 1.10595C114 1.10595 127.721 9.45678 127.721 19.6821C127.721 29.9074 114 38.2489 97.1391 38.2489C94.7078 38.2462 92.28 38.0645 89.8754 37.7053C89.7425 37.6826 89.6058 37.7092 89.4912 37.7802L77.5788 45.147L82.5931 36.7118C82.6368 36.6398 82.6639 36.5589 82.6722 36.4751C82.6805 36.3912 82.6699 36.3066 82.6411 36.2274C82.6123 36.1482 82.5661 36.0765 82.5059 36.0176C82.4456 35.9587 82.3729 35.9141 82.2931 35.887C72.5833 32.6348 66.5568 26.4115 66.5568 19.6821ZM94.8241 64.6697C97.7858 66.5442 99.351 70.5462 98.6293 74.4171C97.7683 78.1482 95.5457 81.4236 92.3966 83.602C89.1982 85.793 85.6964 87.5044 82.0026 88.6819C79.4766 89.6345 76.8655 90.3437 74.2047 90.8C76.0106 89.2169 77.2784 87.1105 77.8319 84.7736C78.0887 83.7387 78.0595 82.6534 77.7475 81.6338C77.5806 81.0965 77.2988 80.602 76.9217 80.1845C76.5447 79.7669 76.0813 79.4364 75.5637 79.2157C74.358 78.8525 73.064 78.9154 71.8991 79.3938C70.4226 79.916 68.998 80.5749 67.6441 81.362C68.7101 79.7071 69.9685 78.1844 71.393 76.8258C76.023 72.3832 82.6399 68.0344 90.6159 64.2386H90.6721C91.1086 63.9708 91.6129 63.8342 92.1248 63.845C93.0843 63.8599 94.0201 64.1458 94.8241 64.6697ZM71.8148 95.1114C71.8961 95.1107 71.9763 95.0915 72.0491 95.0551C72.1241 95.0551 80.0625 91.3062 85.9203 94.3709C87.6261 95.3082 88.3477 96.5641 88.001 98.1199C87.3261 101.222 82.6399 104.774 76.173 105.13C74.8365 104.955 73.5864 104.373 72.5927 103.462C71.4374 102.255 70.7986 100.644 70.8119 98.9728C70.796 97.6193 71.1422 96.2861 71.8148 95.1114ZM98.2731 98.3542C94.8803 101.382 90.3722 102.89 86.417 103.978C85.0861 104.343 83.699 104.69 82.265 104.915C86.014 103.387 88.5727 100.791 89.0975 98.3542C89.5568 96.2923 88.582 94.474 86.4358 93.3587C81.609 90.8469 75.7325 92.4215 73.0426 93.4243C73.6597 92.7793 74.3668 92.2268 75.142 91.7842C77.606 91.2869 80.0257 90.591 82.3775 89.7035C86.178 88.4939 89.7786 86.7283 93.0621 84.4643C94.8358 83.1563 96.3704 81.5519 97.5983 79.7218C99.0417 79.7218 101.244 80.2186 101.947 81.0059C102.433 81.6072 102.782 82.3078 102.969 83.0584C104.525 88.307 102.641 94.4459 98.2731 98.3542ZM70.0996 91.0344C68.9355 91.0411 67.8007 90.6694 66.8661 89.9753C65.1791 88.5319 65.5446 85.7389 66.3788 83.7801C66.4444 83.6114 66.5287 83.4427 66.6131 83.274C68.3763 82.129 70.2626 81.1858 72.2365 80.4623C73.1545 80.0697 74.1778 79.9971 75.142 80.2561C75.5049 80.4204 75.8288 80.6599 76.0922 80.9588C76.3556 81.2577 76.5524 81.6092 76.6697 81.99C76.9035 82.8205 76.9035 83.6994 76.6697 84.5299C76.0792 87.1917 73.858 90.4158 71.3555 91.0906C70.99 91.0531 70.5401 91.0531 70.0996 91.0344ZM82.2838 112.357C82.415 112.77 82.4578 113.207 82.4094 113.638C82.361 114.069 82.2224 114.485 82.0026 114.859C80.3905 117.736 74.9452 119.423 73.9611 119.714L73.5299 119.564C72.5499 119.234 71.6688 118.663 70.9677 117.903C70.2667 117.143 69.7683 116.219 69.5185 115.215C69.4147 114.277 69.5357 113.328 69.8714 112.447C70.2071 111.565 70.748 110.776 71.4492 110.145C72.6677 109.845 80.9341 107.952 82.265 112.357H82.2838ZM52.7794 97.9418C51.7012 97.73 50.6531 97.3869 49.6584 96.9202C49.1712 96.6868 48.7147 96.394 48.2994 96.0486C47.4377 95.3359 46.8593 94.3387 46.6686 93.2369C46.6451 93.0063 46.6451 92.7739 46.6686 92.5433C49.8447 92.8678 52.9971 93.3937 56.1066 94.1179C58.1685 94.6146 60.4273 95.3644 61.4676 97.1639C61.7286 97.6296 61.8943 98.1425 61.955 98.6729C58.8794 98.7481 55.8043 98.5031 52.7794 97.9418ZM53.5292 107.549C55.8254 107.108 58.7309 106.34 60.849 104.324C62.7235 102.516 63.9419 99.1884 62.433 96.5735C61.1771 94.4084 58.684 93.5555 56.3596 92.9932C53.0603 92.2371 49.7174 91.6862 46.3499 91.3437H46.2562C44.0162 91.1093 41.823 90.9219 39.6955 90.7626V32.9253C39.6992 32.7479 39.7394 32.5731 39.8136 32.4119C39.8877 32.2506 39.9943 32.1064 40.1266 31.9881C40.2631 31.8648 40.4232 31.7705 40.5972 31.7109C40.7711 31.6513 40.9554 31.6276 41.1388 31.6413L42.6478 31.7631C47.184 31.9975 49.2085 32.0068 52.3483 32.0256C53.6791 32.0256 55.16 32.0256 57.1657 32.0256C61.2427 32.0818 64.9729 32.0256 68.5907 32.0256H72.3396C75.0384 34.0715 78.0434 35.6783 81.2434 36.7868L75.4419 46.5435C75.3773 46.6521 75.3506 46.7791 75.3658 46.9046C75.3811 47.0301 75.4375 47.147 75.5263 47.237C75.6174 47.3243 75.7348 47.379 75.8603 47.3926C75.9857 47.4061 76.1121 47.3778 76.2198 47.312L81.3465 44.1441V67.9969C77.517 70.2821 73.9416 72.9684 70.6807 76.0104C68.4085 78.0837 66.5896 80.6046 65.3384 83.4146C64.4012 85.7202 63.9888 89.038 66.1445 90.9125C67.2707 91.7447 68.6337 92.1946 70.034 92.1965C70.3902 92.1965 70.7557 92.1965 71.1118 92.1965H71.4399H71.618C72.0116 92.1965 72.4052 92.1965 72.7989 92.1309C71.8143 92.989 71.0265 94.0495 70.4895 95.2401C69.9525 96.4306 69.6788 97.723 69.6872 99.029C69.6835 100.993 70.443 102.882 71.8054 104.296C73.0782 105.464 74.6972 106.185 76.4166 106.349C74.745 106.763 73.159 107.468 71.7304 108.43C70.365 109.384 69.3171 110.726 68.7219 112.282H45.1502C43.5747 110.615 41.8029 109.145 39.8736 107.905C44.4137 108.543 49.0284 108.423 53.5292 107.549ZM61.1771 125.216C60.3127 125.217 59.4674 124.962 58.7484 124.482C58.0295 124.002 57.4695 123.32 57.1397 122.521C56.8098 121.722 56.7249 120.843 56.8958 119.996C57.0668 119.148 57.4858 118.371 58.0996 117.762C58.7135 117.154 59.4944 116.742 60.3431 116.578C61.1918 116.414 62.07 116.507 62.8661 116.844C63.6621 117.18 64.34 117.746 64.8136 118.469C65.2872 119.192 65.5352 120.04 65.5259 120.904C65.5136 122.05 65.0502 123.145 64.2363 123.952C63.4223 124.759 62.3232 125.213 61.1771 125.216Z" fill="black"/>
</svg>
