<svg width="1798" height="144" viewBox="0 0 1798 144" fill="none" xmlns="http://www.w3.org/2000/svg">
<path d="M12.4208 124.589C9.10861 124.589 6.54365 122.884 4.72597 119.473C2.94868 116.063 1.7167 111.498 1.03002 105.781C0.34334 99.9624 0 93.5423 0 86.5204V38.069C0 30.5455 0.34334 23.9248 1.03002 18.2069C1.75709 12.489 3.02947 8.02508 4.84715 4.81505C6.66483 1.60502 9.18939 0 12.4208 0C15.3695 0 17.6719 1.40439 19.328 4.21317C21.0245 7.02194 22.2363 11.0345 22.9634 16.2508C23.6905 21.3668 24.054 27.4859 24.054 34.6082V41.9812H19.6916V34.9091C19.6916 29.5925 19.5098 25.0282 19.1462 21.2163C18.8231 17.4044 18.1364 14.4451 17.0862 12.3386C16.036 10.232 14.5011 9.17868 12.4814 9.17868C10.2598 9.17868 8.5835 10.3323 7.4525 12.6395C6.36189 14.8464 5.61462 18.0063 5.21069 22.1191C4.84715 26.232 4.66538 30.9969 4.66538 36.4138V88.326C4.66538 94.3448 4.88755 99.3605 5.33187 103.373C5.81658 107.386 6.62444 110.395 7.75544 112.401C8.88645 114.408 10.4618 115.411 12.4814 115.411C14.5415 115.411 16.0764 114.307 17.0862 112.1C18.1364 109.893 18.8231 106.834 19.1462 102.922C19.5098 98.9091 19.6916 94.2445 19.6916 88.9279V80.953H24.054V88.1755C24.054 95.2978 23.7107 101.618 23.024 107.135C22.3777 112.552 21.2063 116.815 19.5098 119.925C17.8537 123.034 15.4907 124.589 12.4208 124.589Z" fill="#7F8192"/>
<path d="M32.235 123.085L42.5958 1.20376H47.4429L57.8643 123.085H53.3201L50.8965 90.4326H39.2028L36.7186 123.085H32.235ZM39.8692 82.1567H50.2906L45.0799 16.4012L39.8692 82.1567Z" fill="#7F8192"/>
<path d="M66.9868 123.085L68.1986 1.20376H72.8034L82.4977 106.984L92.3737 1.20376H96.9785L98.1903 123.085H94.3732L93.4038 26.0313L84.0124 123.085H81.0435L71.7733 26.1818L70.8039 123.085H66.9868Z" fill="#7F8192"/>
<path d="M121.613 124.589C118.341 124.589 115.776 123.034 113.918 119.925C112.1 116.715 110.808 112.301 110.04 106.683C109.313 100.966 108.95 94.4451 108.95 87.1223V36.5643C108.95 29.1411 109.333 22.721 110.101 17.3041C110.909 11.7868 112.221 7.52351 114.039 4.5141C115.897 1.5047 118.422 0 121.613 0C124.764 0 127.248 1.5047 129.065 4.5141C130.923 7.52351 132.236 11.7868 133.004 17.3041C133.771 22.721 134.155 29.1411 134.155 36.5643V87.2727C134.155 94.5956 133.771 101.066 133.004 106.683C132.277 112.201 131.004 116.564 129.187 119.774C127.369 122.984 124.844 124.589 121.613 124.589ZM121.613 115.411C123.754 115.411 125.39 114.357 126.521 112.251C127.652 110.044 128.419 107.034 128.823 103.223C129.267 99.3103 129.489 94.7962 129.489 89.6802V34.4577C129.489 29.3417 129.267 24.8777 128.823 21.0658C128.419 17.2539 127.652 14.3448 126.521 12.3386C125.39 10.232 123.754 9.17868 121.613 9.17868C119.432 9.17868 117.755 10.232 116.584 12.3386C115.453 14.3448 114.665 17.2539 114.221 21.0658C113.817 24.8777 113.615 29.3417 113.615 34.4577V89.6802C113.615 94.7962 113.817 99.3103 114.221 103.223C114.665 107.034 115.453 110.044 116.584 112.251C117.755 114.357 119.432 115.411 121.613 115.411Z" fill="#7F8192"/>
<path d="M142.116 123.235V114.508C143.287 114.408 144.277 114.107 145.085 113.605C145.892 113.003 146.559 111.749 147.084 109.843C147.65 107.937 148.114 104.828 148.478 100.514C148.882 96.2006 149.245 90.2821 149.568 82.7586C149.932 75.2351 150.295 65.605 150.659 53.8683L152.113 1.20376H171.199V123.085H166.533V9.93103H156.233L155.082 53.8683C154.718 65.4044 154.355 75.2351 153.991 83.3605C153.668 91.3856 153.244 98.0564 152.719 103.373C152.194 108.589 151.487 112.702 150.598 115.712C149.75 118.621 148.639 120.627 147.266 121.73C145.892 122.834 144.176 123.335 142.116 123.235Z" fill="#7F8192"/>
<path d="M183.523 123.085V1.20376H188.128V123.085H183.523Z" fill="#7F8192"/>
<path d="M200.408 123.085V1.20376H205.073V57.1787H208.527L218.585 1.20376H223.25L212.586 59.8871L224.886 123.085H220.221L208.588 63.348H205.073V123.085H200.408Z" fill="#7F8192"/>
<path d="M232.664 138.734L232.725 129.856C234.744 130.056 236.32 129.856 237.451 129.254C238.622 128.652 239.47 127.498 239.996 125.793C240.521 124.188 240.864 121.931 241.026 119.022C241.187 116.013 241.288 112.251 241.329 107.737L230.847 1.20376H235.33L240.359 55.8244L243.631 95.0972L246.479 55.8244L250.962 1.20376H255.446L246.054 108.339C245.651 113.154 245.287 117.367 244.964 120.978C244.641 124.489 244.237 127.398 243.752 129.705C243.308 132.113 242.641 134.019 241.753 135.423C240.904 136.828 239.753 137.781 238.299 138.282C236.845 138.784 234.967 138.934 232.664 138.734Z" fill="#7F8192"/>
<path d="M264.483 123.085V1.20376H275.025C277.247 1.20376 279.125 1.90595 280.66 3.31034C282.195 4.71473 283.427 6.77115 284.356 9.47962C285.285 12.1881 285.951 15.4483 286.355 19.2602C286.8 22.9718 287.022 27.0846 287.022 31.5987C287.022 35.511 286.82 39.3229 286.416 43.0345C286.052 46.6458 285.426 49.7555 284.538 52.3636C283.649 54.8715 282.397 56.5266 280.781 57.3292C282.68 58.6332 284.174 60.8903 285.265 64.1003C286.355 67.21 287.103 70.8715 287.507 75.0846C287.951 79.1975 288.173 83.4608 288.173 87.8746C288.173 92.6897 287.991 97.2539 287.628 101.567C287.305 105.781 286.699 109.492 285.81 112.702C284.962 115.912 283.79 118.47 282.296 120.376C280.801 122.182 278.903 123.085 276.601 123.085H264.483ZM269.087 114.508H275.692C278.883 114.508 281.003 112.351 282.054 108.038C283.144 103.724 283.689 97.0031 283.689 87.8746C283.689 82.9592 283.447 78.5956 282.962 74.7837C282.478 70.9718 281.65 68.0125 280.478 65.9059C279.347 63.699 277.792 62.5956 275.813 62.5956H269.087V114.508ZM269.087 53.7179H275.752C277.651 53.7179 279.105 52.815 280.115 51.0094C281.125 49.1034 281.831 46.5455 282.235 43.3354C282.639 40.0251 282.841 36.1129 282.841 31.5987C282.841 26.6834 282.559 22.6207 281.993 19.4107C281.468 16.2006 280.539 13.8433 279.206 12.3386C277.873 10.8338 275.954 10.0815 273.45 10.0815H269.087V53.7179Z" fill="#7F8192"/>
<path d="M295.865 123.085L306.226 1.20376H311.073L321.494 123.085H316.95L314.527 90.4326H302.833L300.349 123.085H295.865ZM303.499 82.1567H313.921L308.71 16.4012L303.499 82.1567Z" fill="#7F8192"/>
<path d="M330.98 123.085V1.20376H335.646V55.2226H351.096V1.20376H355.701V123.085H351.096V63.7994H335.646V123.085H330.98Z" fill="#7F8192"/>
<path d="M367.869 123.085V1.20376H372.534V55.2226H387.985V1.20376H392.589V123.085H387.985V63.7994H372.534V123.085H367.869Z" fill="#7F8192"/>
<path d="M401.667 123.085L411.665 67.8621C409.282 65.4545 407.504 61.3417 406.333 55.5235C405.161 49.605 404.576 42.5329 404.576 34.3072C404.576 28.1881 404.98 22.6708 405.788 17.7555C406.636 12.7398 408.05 8.72727 410.029 5.71787C412.048 2.70846 414.775 1.20376 418.208 1.20376H428.63V123.085H423.964V70.8715H417.784C417.542 70.8715 417.178 70.8715 416.694 70.8715C416.249 70.7712 415.906 70.721 415.664 70.721L406.878 123.085H401.667ZM418.572 62.4451H423.964V9.78056H418.39C415.401 9.78056 413.099 11.6865 411.483 15.4984C409.867 19.21 409.059 25.4295 409.059 34.1567C409.059 43.5862 409.766 50.6583 411.18 55.373C412.634 60.0878 415.098 62.4451 418.572 62.4451Z" fill="#7F8192"/>
<path d="M472.399 123.085L473.61 1.20376H478.215L487.909 106.984L497.785 1.20376H502.39L503.602 123.085H499.785L498.815 26.0313L489.424 123.085H486.455L477.185 26.1818L476.216 123.085H472.399Z" fill="#7F8192"/>
<path d="M527.025 124.589C523.753 124.589 521.188 123.034 519.33 119.925C517.512 116.715 516.219 112.301 515.452 106.683C514.725 100.966 514.361 94.4451 514.361 87.1223V36.5643C514.361 29.1411 514.745 22.721 515.513 17.3041C516.32 11.7868 517.633 7.52351 519.451 4.5141C521.309 1.5047 523.834 0 527.025 0C530.175 0 532.659 1.5047 534.477 4.5141C536.335 7.52351 537.648 11.7868 538.415 17.3041C539.183 22.721 539.567 29.1411 539.567 36.5643V87.2727C539.567 94.5956 539.183 101.066 538.415 106.683C537.688 112.201 536.416 116.564 534.598 119.774C532.781 122.984 530.256 124.589 527.025 124.589ZM527.025 115.411C529.165 115.411 530.801 114.357 531.932 112.251C533.063 110.044 533.831 107.034 534.235 103.223C534.679 99.3103 534.901 94.7962 534.901 89.6802V34.4577C534.901 29.3417 534.679 24.8777 534.235 21.0658C533.831 17.2539 533.063 14.3448 531.932 12.3386C530.801 10.232 529.165 9.17868 527.025 9.17868C524.843 9.17868 523.167 10.232 521.996 12.3386C520.865 14.3448 520.077 17.2539 519.633 21.0658C519.229 24.8777 519.027 29.3417 519.027 34.4577V89.6802C519.027 94.7962 519.229 99.3103 519.633 103.223C520.077 107.034 520.865 110.044 521.996 112.251C523.167 114.357 524.843 115.411 527.025 115.411Z" fill="#7F8192"/>
<path d="M547.467 123.085L559.585 59.8871L548.618 1.20376H553.102L563.402 59.4357H563.826V1.20376H567.886V59.4357H568.31L578.67 1.20376H583.154L572.127 59.8871L584.305 123.085H579.761L568.491 61.5423H567.886V123.085H563.826V61.5423H563.281L552.011 123.085H547.467Z" fill="#7F8192"/>
<path d="M593.013 123.085V1.20376H610.766V10.0815H597.678V55.8244H608.342V64.2508H597.678V114.508H610.887V123.085H593.013Z" fill="#7F8192"/>
<path d="M652.793 123.085V1.20376H672.485V9.78056H657.458V52.3636H661.397C664.628 52.3636 667.274 53.6176 669.334 56.1254C671.434 58.5329 672.989 62.3448 673.999 67.5611C675.009 72.7774 675.514 79.6489 675.514 88.1755C675.514 93.6928 675.251 98.6082 674.726 102.922C674.201 107.235 673.373 110.897 672.242 113.906C671.152 116.915 669.718 119.223 667.94 120.828C666.203 122.332 664.083 123.085 661.578 123.085H652.793ZM657.458 114.357H661.639C663.901 114.357 665.699 113.505 667.031 111.799C668.405 109.994 669.395 107.135 670 103.223C670.647 99.3103 670.97 94.2445 670.97 88.0251C670.97 79.1975 670.283 72.5266 668.91 68.0125C667.577 63.3981 665.133 61.0909 661.578 61.0909H657.458V114.357Z" fill="#7F8192"/>
<path d="M684.694 138.734L684.755 129.856C686.775 130.056 688.35 129.856 689.481 129.254C690.652 128.652 691.501 127.498 692.026 125.793C692.551 124.188 692.894 121.931 693.056 119.022C693.217 116.013 693.318 112.251 693.359 107.737L682.877 1.20376H687.36L692.389 55.8244L695.661 95.0972L698.509 55.8244L702.992 1.20376H707.476L698.085 108.339C697.681 113.154 697.317 117.367 696.994 120.978C696.671 124.489 696.267 127.398 695.782 129.705C695.338 132.113 694.671 134.019 693.783 135.423C692.934 136.828 691.783 137.781 690.329 138.282C688.875 138.784 686.997 138.934 684.694 138.734Z" fill="#7F8192"/>
<path d="M722.572 123.085V10.0815H713.301V1.20376H736.204V10.0815H727.176V123.085H722.572Z" fill="#7F8192"/>
<path d="M745.175 123.085V1.20376H749.295V97.8056L765.17 1.20376H768.745V123.085H764.624V26.0313L748.811 123.085H745.175Z" fill="#7F8192"/>
<path d="M812.945 123.085V1.20376H817.549V114.508H828.334V1.20376H833V114.508H843.36V1.20376H848.026V123.085H812.945Z" fill="#7F8192"/>
<path d="M860.127 123.085V1.20376H864.793V57.1787H868.246L878.304 1.20376H882.969L872.306 59.8871L884.605 123.085H879.94L868.307 63.348H864.793V123.085H860.127Z" fill="#7F8192"/>
<path d="M893.292 123.085V1.20376H897.897V123.085H893.292Z" fill="#7F8192"/>
<path d="M906.542 144V114.508H908.481C909.248 113.204 909.955 111.749 910.601 110.144C911.288 108.539 911.894 106.282 912.419 103.373C912.985 100.464 913.489 96.5016 913.934 91.4859C914.419 86.3699 914.863 79.6991 915.267 71.4734C915.671 63.2476 916.034 52.9655 916.357 40.627L917.448 1.20376H935.928V114.508H939.927V144H936.291L935.867 123.085H910.601L910.177 144H906.542ZM913.146 114.508H931.323V9.93103H921.507L920.599 43.185C920.316 55.4232 919.973 65.5549 919.569 73.5799C919.165 81.5047 918.741 87.9248 918.296 92.8401C917.852 97.6552 917.347 101.417 916.782 104.125C916.256 106.834 915.691 108.94 915.085 110.445C914.479 111.85 913.833 113.204 913.146 114.508Z" fill="#7F8192"/>
<path d="M946.161 123.235V114.508C947.332 114.408 948.322 114.107 949.13 113.605C949.937 113.003 950.604 111.749 951.129 109.843C951.695 107.937 952.159 104.828 952.523 100.514C952.926 96.2006 953.29 90.2821 953.613 82.7586C953.977 75.2351 954.34 65.605 954.704 53.8683L956.158 1.20376H975.244V123.085H970.578V9.93103H960.278L959.127 53.8683C958.763 65.4044 958.4 75.2351 958.036 83.3605C957.713 91.3856 957.289 98.0564 956.764 103.373C956.239 108.589 955.532 112.702 954.643 115.712C953.795 118.621 952.684 120.627 951.311 121.73C949.937 122.834 948.221 123.335 946.161 123.235Z" fill="#7F8192"/>
<path d="M987.386 123.085V1.20376H991.506V97.8056L1007.38 1.20376H1010.96V123.085H1006.84V26.0313L991.021 123.085H987.386Z" fill="#7F8192"/>
<path d="M1023.15 123.085V1.20376H1033.69C1035.92 1.20376 1037.79 1.90595 1039.33 3.31034C1040.86 4.71473 1042.1 6.77115 1043.03 9.47962C1043.95 12.1881 1044.62 15.4483 1045.02 19.2602C1045.47 22.9718 1045.69 27.0846 1045.69 31.5987C1045.69 35.511 1045.49 39.3229 1045.09 43.0345C1044.72 46.6458 1044.1 49.7555 1043.21 52.3636C1042.32 54.8715 1041.07 56.5266 1039.45 57.3292C1041.35 58.6332 1042.84 60.8903 1043.93 64.1003C1045.02 67.21 1045.77 70.8715 1046.18 75.0846C1046.62 79.1975 1046.84 83.4608 1046.84 87.8746C1046.84 92.6897 1046.66 97.2539 1046.3 101.567C1045.97 105.781 1045.37 109.492 1044.48 112.702C1043.63 115.912 1042.46 118.47 1040.97 120.376C1039.47 122.182 1037.57 123.085 1035.27 123.085H1023.15ZM1027.76 114.508H1034.36C1037.55 114.508 1039.67 112.351 1040.72 108.038C1041.81 103.724 1042.36 97.0031 1042.36 87.8746C1042.36 82.9592 1042.12 78.5956 1041.63 74.7837C1041.15 70.9718 1040.32 68.0125 1039.15 65.9059C1038.02 63.699 1036.46 62.5956 1034.48 62.5956H1027.76V114.508ZM1027.76 53.7179H1034.42C1036.32 53.7179 1037.77 52.815 1038.78 51.0094C1039.79 49.1034 1040.5 46.5455 1040.9 43.3354C1041.31 40.0251 1041.51 36.1129 1041.51 31.5987C1041.51 26.6834 1041.23 22.6207 1040.66 19.4107C1040.14 16.2006 1039.21 13.8433 1037.88 12.3386C1036.54 10.8338 1034.62 10.0815 1032.12 10.0815H1027.76V53.7179Z" fill="#7F8192"/>
<path d="M1057.14 123.085V1.20376H1061.26V97.8056L1077.13 1.20376H1080.71V123.085H1076.59V26.0313L1060.78 123.085H1057.14Z" fill="#7F8192"/>
<path d="M1092.48 123.085L1093.69 1.20376H1098.3L1107.99 106.984L1117.87 1.20376H1122.47L1123.68 123.085H1119.87L1118.9 26.0313L1109.51 123.085H1106.54L1097.27 26.1818L1096.3 123.085H1092.48Z" fill="#7F8192"/>
<path d="M1163.78 144V114.508H1165.72C1166.49 113.204 1167.19 111.749 1167.84 110.144C1168.53 108.539 1169.13 106.282 1169.66 103.373C1170.22 100.464 1170.73 96.5016 1171.17 91.4859C1171.66 86.3699 1172.1 79.6991 1172.51 71.4734C1172.91 63.2476 1173.27 52.9655 1173.6 40.627L1174.69 1.20376H1193.17V114.508H1197.17V144H1193.53L1193.11 123.085H1167.84L1167.42 144H1163.78ZM1170.39 114.508H1188.56V9.93103H1178.75L1177.84 43.185C1177.56 55.4232 1177.21 65.5549 1176.81 73.5799C1176.4 81.5047 1175.98 87.9248 1175.54 92.8401C1175.09 97.6552 1174.59 101.417 1174.02 104.125C1173.5 106.834 1172.93 108.94 1172.32 110.445C1171.72 111.85 1171.07 113.204 1170.39 114.508Z" fill="#7F8192"/>
<path d="M1203.4 123.235V114.508C1204.57 114.408 1205.56 114.107 1206.37 113.605C1207.18 113.003 1207.84 111.749 1208.37 109.843C1208.93 107.937 1209.4 104.828 1209.76 100.514C1210.17 96.2006 1210.53 90.2821 1210.85 82.7586C1211.22 75.2351 1211.58 65.605 1211.94 53.8683L1213.4 1.20376H1232.48V123.085H1227.82V9.93103H1217.52L1216.37 53.8683C1216 65.4044 1215.64 75.2351 1215.28 83.3605C1214.95 91.3856 1214.53 98.0564 1214 103.373C1213.48 108.589 1212.77 112.702 1211.88 115.712C1211.03 118.621 1209.92 120.627 1208.55 121.73C1207.18 122.834 1205.46 123.335 1203.4 123.235Z" fill="#7F8192"/>
<path d="M1241.54 123.085L1251.53 67.8621C1249.15 65.4545 1247.37 61.3417 1246.2 55.5235C1245.03 49.605 1244.44 42.5329 1244.44 34.3072C1244.44 28.1881 1244.85 22.6708 1245.66 17.7555C1246.5 12.7398 1247.92 8.72727 1249.9 5.71787C1251.92 2.70846 1254.64 1.20376 1258.08 1.20376H1268.5V123.085H1263.83V70.8715H1257.65C1257.41 70.8715 1257.05 70.8715 1256.56 70.8715C1256.12 70.7712 1255.77 70.721 1255.53 70.721L1246.75 123.085H1241.54ZM1258.44 62.4451H1263.83V9.78056H1258.26C1255.27 9.78056 1252.97 11.6865 1251.35 15.4984C1249.74 19.21 1248.93 25.4295 1248.93 34.1567C1248.93 43.5862 1249.63 50.6583 1251.05 55.373C1252.5 60.0878 1254.97 62.4451 1258.44 62.4451Z" fill="#7F8192"/>
<path d="M1312.69 123.085V1.20376H1323.23C1325.46 1.20376 1327.33 1.90595 1328.87 3.31034C1330.4 4.71473 1331.64 6.77115 1332.56 9.47962C1333.49 12.1881 1334.16 15.4483 1334.56 19.2602C1335.01 22.9718 1335.23 27.0846 1335.23 31.5987C1335.23 35.511 1335.03 39.3229 1334.62 43.0345C1334.26 46.6458 1333.63 49.7555 1332.75 52.3636C1331.86 54.8715 1330.61 56.5266 1328.99 57.3292C1330.89 58.6332 1332.38 60.8903 1333.47 64.1003C1334.56 67.21 1335.31 70.8715 1335.72 75.0846C1336.16 79.1975 1336.38 83.4608 1336.38 87.8746C1336.38 92.6897 1336.2 97.2539 1335.84 101.567C1335.51 105.781 1334.91 109.492 1334.02 112.702C1333.17 115.912 1332 118.47 1330.5 120.376C1329.01 122.182 1327.11 123.085 1324.81 123.085H1312.69ZM1317.3 114.508H1323.9C1327.09 114.508 1329.21 112.351 1330.26 108.038C1331.35 103.724 1331.9 97.0031 1331.9 87.8746C1331.9 82.9592 1331.66 78.5956 1331.17 74.7837C1330.69 70.9718 1329.86 68.0125 1328.69 65.9059C1327.56 63.699 1326 62.5956 1324.02 62.5956H1317.3V114.508ZM1317.3 53.7179H1323.96C1325.86 53.7179 1327.31 52.815 1328.32 51.0094C1329.33 49.1034 1330.04 46.5455 1330.44 43.3354C1330.85 40.0251 1331.05 36.1129 1331.05 31.5987C1331.05 26.6834 1330.77 22.6207 1330.2 19.4107C1329.68 16.2006 1328.75 13.8433 1327.41 12.3386C1326.08 10.8338 1324.16 10.0815 1321.66 10.0815H1317.3V53.7179Z" fill="#7F8192"/>
<path d="M1344.07 123.085L1354.43 1.20376H1359.28L1369.7 123.085H1365.16L1362.74 90.4326H1351.04L1348.56 123.085H1344.07ZM1351.71 82.1567H1362.13L1356.92 16.4012L1351.71 82.1567Z" fill="#7F8192"/>
<path d="M1379.25 123.085V1.20376H1383.85V114.508H1394.64V1.20376H1399.3V114.508H1409.67V1.20376H1414.33V123.085H1379.25Z" fill="#7F8192"/>
<path d="M1438.13 124.589C1434.85 124.589 1432.29 123.034 1430.43 119.925C1428.61 116.715 1427.32 112.301 1426.55 106.683C1425.83 100.966 1425.46 94.4451 1425.46 87.1223V36.5643C1425.46 29.1411 1425.85 22.721 1426.61 17.3041C1427.42 11.7868 1428.73 7.52351 1430.55 4.5141C1432.41 1.5047 1434.93 0 1438.13 0C1441.28 0 1443.76 1.5047 1445.58 4.5141C1447.44 7.52351 1448.75 11.7868 1449.52 17.3041C1450.28 22.721 1450.67 29.1411 1450.67 36.5643V87.2727C1450.67 94.5956 1450.28 101.066 1449.52 106.683C1448.79 112.201 1447.52 116.564 1445.7 119.774C1443.88 122.984 1441.36 124.589 1438.13 124.589ZM1438.13 115.411C1440.27 115.411 1441.9 114.357 1443.03 112.251C1444.16 110.044 1444.93 107.034 1445.34 103.223C1445.78 99.3103 1446 94.7962 1446 89.6802V34.4577C1446 29.3417 1445.78 24.8777 1445.34 21.0658C1444.93 17.2539 1444.16 14.3448 1443.03 12.3386C1441.9 10.232 1440.27 9.17868 1438.13 9.17868C1435.94 9.17868 1434.27 10.232 1433.1 12.3386C1431.97 14.3448 1431.18 17.2539 1430.73 21.0658C1430.33 24.8777 1430.13 29.3417 1430.13 34.4577V89.6802C1430.13 94.7962 1430.33 99.3103 1430.73 103.223C1431.18 107.034 1431.97 110.044 1433.1 112.251C1434.27 114.357 1435.94 115.411 1438.13 115.411Z" fill="#7F8192"/>
<path d="M1461.96 123.085V1.20376H1479.35V10.0815H1466.57V123.085H1461.96Z" fill="#7F8192"/>
<path d="M1499.95 124.589C1496.68 124.589 1494.11 123.034 1492.26 119.925C1490.44 116.715 1489.15 112.301 1488.38 106.683C1487.65 100.966 1487.29 94.4451 1487.29 87.1223V36.5643C1487.29 29.1411 1487.67 22.721 1488.44 17.3041C1489.25 11.7868 1490.56 7.52351 1492.38 4.5141C1494.24 1.5047 1496.76 0 1499.95 0C1503.1 0 1505.59 1.5047 1507.4 4.5141C1509.26 7.52351 1510.57 11.7868 1511.34 17.3041C1512.11 22.721 1512.49 29.1411 1512.49 36.5643V87.2727C1512.49 94.5956 1512.11 101.066 1511.34 106.683C1510.61 112.201 1509.34 116.564 1507.52 119.774C1505.71 122.984 1503.18 124.589 1499.95 124.589ZM1499.95 115.411C1502.09 115.411 1503.73 114.357 1504.86 112.251C1505.99 110.044 1506.76 107.034 1507.16 103.223C1507.61 99.3103 1507.83 94.7962 1507.83 89.6802V34.4577C1507.83 29.3417 1507.61 24.8777 1507.16 21.0658C1506.76 17.2539 1505.99 14.3448 1504.86 12.3386C1503.73 10.232 1502.09 9.17868 1499.95 9.17868C1497.77 9.17868 1496.09 10.232 1494.92 12.3386C1493.79 14.3448 1493 17.2539 1492.56 21.0658C1492.15 24.8777 1491.95 29.3417 1491.95 34.4577V89.6802C1491.95 94.7962 1492.15 99.3103 1492.56 103.223C1493 107.034 1493.79 110.044 1494.92 112.251C1496.09 114.357 1497.77 115.411 1499.95 115.411Z" fill="#7F8192"/>
<path d="M1565.97 124.589C1563.42 124.589 1561.34 123.386 1559.73 120.978C1558.11 118.47 1556.92 115.009 1556.15 110.596C1555.39 106.182 1555 100.966 1555 94.9467V91.9373H1559.3C1559.3 92.3386 1559.3 92.9404 1559.3 93.7429C1559.3 94.4451 1559.32 94.9969 1559.36 95.3981C1559.4 101.718 1559.91 106.683 1560.88 110.295C1561.89 113.806 1563.59 115.561 1565.97 115.561C1567.5 115.561 1568.8 114.759 1569.85 113.154C1570.94 111.448 1571.74 108.74 1572.27 105.028C1572.84 101.216 1573.12 96.2006 1573.12 89.9812C1573.12 82.558 1572.49 76.4389 1571.24 71.6238C1570.03 66.8088 1567.85 64.2508 1564.7 63.9498C1564.62 63.8495 1564.37 63.7994 1563.97 63.7994C1563.61 63.7994 1563.22 63.7994 1562.82 63.7994C1562.45 63.7994 1562.21 63.7994 1562.09 63.7994V55.2226C1562.21 55.2226 1562.45 55.2226 1562.82 55.2226C1563.22 55.2226 1563.61 55.2226 1563.97 55.2226C1564.37 55.2226 1564.6 55.2226 1564.64 55.2226C1567.79 54.9216 1569.99 52.7649 1571.24 48.7523C1572.49 44.6395 1573.12 38.5204 1573.12 30.395C1573.12 24.0752 1572.59 18.9091 1571.54 14.8965C1570.49 10.884 1568.69 8.87774 1566.15 8.87774C1563.73 8.87774 1561.91 10.5329 1560.7 13.8433C1559.49 17.0533 1558.84 22.2194 1558.76 29.3417C1558.76 29.6426 1558.76 30.094 1558.76 30.6959C1558.76 31.2978 1558.76 31.7994 1558.76 32.2006H1554.4V29.3417C1554.4 23.3229 1554.8 18.1567 1555.61 13.8433C1556.42 9.42946 1557.67 6.01881 1559.36 3.61128C1561.1 1.20376 1563.3 0 1565.97 0C1568.55 0 1570.69 1.30407 1572.39 3.91222C1574.13 6.52037 1575.42 10.1317 1576.27 14.7461C1577.16 19.2602 1577.6 24.5266 1577.6 30.5455C1577.6 38.9718 1576.94 45.5925 1575.6 50.4075C1574.27 55.1223 1572.57 58.0815 1570.51 59.2853C1571.72 60.1881 1572.86 61.7931 1573.91 64.1003C1575 66.4075 1575.88 69.6677 1576.57 73.8809C1577.26 78.094 1577.6 83.4107 1577.6 89.8307C1577.6 96.7523 1577.22 102.821 1576.45 108.038C1575.68 113.254 1574.43 117.317 1572.69 120.226C1571 123.135 1568.76 124.589 1565.97 124.589Z" fill="#7F8192"/>
<path d="M1584.07 144V114.508H1586.01C1586.78 113.204 1587.48 111.749 1588.13 110.144C1588.82 108.539 1589.42 106.282 1589.95 103.373C1590.51 100.464 1591.02 96.5016 1591.46 91.4859C1591.95 86.3699 1592.39 79.6991 1592.8 71.4734C1593.2 63.2476 1593.56 52.9655 1593.89 40.627L1594.98 1.20376H1613.46V114.508H1617.46V144H1613.82L1613.4 123.085H1588.13L1587.71 144H1584.07ZM1590.68 114.508H1608.85V9.93103H1599.04L1598.13 43.185C1597.84 55.4232 1597.5 65.5549 1597.1 73.5799C1596.69 81.5047 1596.27 87.9248 1595.83 92.8401C1595.38 97.6552 1594.88 101.417 1594.31 104.125C1593.79 106.834 1593.22 108.94 1592.61 110.445C1592.01 111.85 1591.36 113.204 1590.68 114.508Z" fill="#7F8192"/>
<path d="M1638.66 124.589C1635.38 124.589 1632.82 123.034 1630.96 119.925C1629.14 116.715 1627.85 112.301 1627.08 106.683C1626.36 100.966 1625.99 94.4451 1625.99 87.1223V36.5643C1625.99 29.1411 1626.38 22.721 1627.14 17.3041C1627.95 11.7868 1629.26 7.52351 1631.08 4.5141C1632.94 1.5047 1635.46 0 1638.66 0C1641.81 0 1644.29 1.5047 1646.11 4.5141C1647.97 7.52351 1649.28 11.7868 1650.05 17.3041C1650.81 22.721 1651.2 29.1411 1651.2 36.5643V87.2727C1651.2 94.5956 1650.81 101.066 1650.05 106.683C1649.32 112.201 1648.05 116.564 1646.23 119.774C1644.41 122.984 1641.89 124.589 1638.66 124.589ZM1638.66 115.411C1640.8 115.411 1642.43 114.357 1643.56 112.251C1644.69 110.044 1645.46 107.034 1645.87 103.223C1646.31 99.3103 1646.53 94.7962 1646.53 89.6802V34.4577C1646.53 29.3417 1646.31 24.8777 1645.87 21.0658C1645.46 17.2539 1644.69 14.3448 1643.56 12.3386C1642.43 10.232 1640.8 9.17868 1638.66 9.17868C1636.47 9.17868 1634.8 10.232 1633.63 12.3386C1632.5 14.3448 1631.71 17.2539 1631.26 21.0658C1630.86 24.8777 1630.66 29.3417 1630.66 34.4577V89.6802C1630.66 94.7962 1630.86 99.3103 1631.26 103.223C1631.71 107.034 1632.5 110.044 1633.63 112.251C1634.8 114.357 1636.47 115.411 1638.66 115.411Z" fill="#7F8192"/>
<path d="M1662.49 123.085V1.20376H1674.24C1677.19 1.20376 1679.52 2.55799 1681.21 5.26645C1682.91 7.97492 1684.1 11.7367 1684.79 16.5517C1685.51 21.3668 1685.88 27.0345 1685.88 33.5549C1685.88 39.2727 1685.49 44.5893 1684.73 49.5047C1684 54.3197 1682.77 58.1818 1681.03 61.0909C1679.33 64 1677.09 65.4545 1674.31 65.4545H1667.1V123.085H1662.49ZM1667.1 56.8777H1672.97C1674.95 56.8777 1676.55 56.1755 1677.76 54.7712C1679.01 53.2665 1679.92 50.8088 1680.49 47.3981C1681.05 43.9875 1681.33 39.373 1681.33 33.5549C1681.33 27.3354 1681.09 22.5204 1680.61 19.1097C1680.12 15.5987 1679.27 13.1912 1678.06 11.8871C1676.89 10.4828 1675.21 9.78056 1673.03 9.78056H1667.1V56.8777Z" fill="#7F8192"/>
<path d="M1707.05 124.589C1703.78 124.589 1701.21 123.034 1699.35 119.925C1697.54 116.715 1696.24 112.301 1695.48 106.683C1694.75 100.966 1694.38 94.4451 1694.38 87.1223V36.5643C1694.38 29.1411 1694.77 22.721 1695.54 17.3041C1696.34 11.7868 1697.66 7.52351 1699.47 4.5141C1701.33 1.5047 1703.86 0 1707.05 0C1710.2 0 1712.68 1.5047 1714.5 4.5141C1716.36 7.52351 1717.67 11.7868 1718.44 17.3041C1719.21 22.721 1719.59 29.1411 1719.59 36.5643V87.2727C1719.59 94.5956 1719.21 101.066 1718.44 106.683C1717.71 112.201 1716.44 116.564 1714.62 119.774C1712.8 122.984 1710.28 124.589 1707.05 124.589ZM1707.05 115.411C1709.19 115.411 1710.82 114.357 1711.96 112.251C1713.09 110.044 1713.85 107.034 1714.26 103.223C1714.7 99.3103 1714.92 94.7962 1714.92 89.6802V34.4577C1714.92 29.3417 1714.7 24.8777 1714.26 21.0658C1713.85 17.2539 1713.09 14.3448 1711.96 12.3386C1710.82 10.232 1709.19 9.17868 1707.05 9.17868C1704.87 9.17868 1703.19 10.232 1702.02 12.3386C1700.89 14.3448 1700.1 17.2539 1699.66 21.0658C1699.25 24.8777 1699.05 29.3417 1699.05 34.4577V89.6802C1699.05 94.7962 1699.25 99.3103 1699.66 103.223C1700.1 107.034 1700.89 110.044 1702.02 112.251C1703.19 114.357 1704.87 115.411 1707.05 115.411Z" fill="#7F8192"/>
<path d="M1730.88 123.085V1.20376H1741.43C1743.65 1.20376 1745.53 1.90595 1747.06 3.31034C1748.6 4.71473 1749.83 6.77115 1750.76 9.47962C1751.69 12.1881 1752.35 15.4483 1752.76 19.2602C1753.2 22.9718 1753.42 27.0846 1753.42 31.5987C1753.42 35.511 1753.22 39.3229 1752.82 43.0345C1752.45 46.6458 1751.83 49.7555 1750.94 52.3636C1750.05 54.8715 1748.8 56.5266 1747.18 57.3292C1749.08 58.6332 1750.58 60.8903 1751.67 64.1003C1752.76 67.21 1753.5 70.8715 1753.91 75.0846C1754.35 79.1975 1754.57 83.4608 1754.57 87.8746C1754.57 92.6897 1754.39 97.2539 1754.03 101.567C1753.71 105.781 1753.1 109.492 1752.21 112.702C1751.36 115.912 1750.19 118.47 1748.7 120.376C1747.2 122.182 1745.3 123.085 1743 123.085H1730.88ZM1735.49 114.508H1742.09C1745.28 114.508 1747.4 112.351 1748.45 108.038C1749.54 103.724 1750.09 97.0031 1750.09 87.8746C1750.09 82.9592 1749.85 78.5956 1749.36 74.7837C1748.88 70.9718 1748.05 68.0125 1746.88 65.9059C1745.75 63.699 1744.19 62.5956 1742.21 62.5956H1735.49V114.508ZM1735.49 53.7179H1742.15C1744.05 53.7179 1745.51 52.815 1746.52 51.0094C1747.53 49.1034 1748.23 46.5455 1748.64 43.3354C1749.04 40.0251 1749.24 36.1129 1749.24 31.5987C1749.24 26.6834 1748.96 22.6207 1748.39 19.4107C1747.87 16.2006 1746.94 13.8433 1745.61 12.3386C1744.27 10.8338 1742.36 10.0815 1739.85 10.0815H1735.49V53.7179Z" fill="#7F8192"/>
<path d="M1761.78 36.8652V1.20376H1766.08L1764.2 36.8652H1761.78Z" fill="#7F8192"/>
<path d="M1771.04 123.085L1781.03 67.8621C1778.65 65.4545 1776.87 61.3417 1775.7 55.5235C1774.53 49.605 1773.95 42.5329 1773.95 34.3072C1773.95 28.1881 1774.35 22.6708 1775.16 17.7555C1776.01 12.7398 1777.42 8.72727 1779.4 5.71787C1781.42 2.70846 1784.15 1.20376 1787.58 1.20376H1798V123.085H1793.33V70.8715H1787.15C1786.91 70.8715 1786.55 70.8715 1786.06 70.8715C1785.62 70.7712 1785.28 70.721 1785.03 70.721L1776.25 123.085H1771.04ZM1787.94 62.4451H1793.33V9.78056H1787.76C1784.77 9.78056 1782.47 11.6865 1780.85 15.4984C1779.24 19.21 1778.43 25.4295 1778.43 34.1567C1778.43 43.5862 1779.14 50.6583 1780.55 55.373C1782 60.0878 1784.47 62.4451 1787.94 62.4451Z" fill="#7F8192"/>
</svg>
