<svg width="11" height="16" viewBox="0 0 11 16" fill="none" xmlns="http://www.w3.org/2000/svg">
<path fill-rule="evenodd" clip-rule="evenodd" d="M0.743652 10.1433C0.743652 13.0803 2.95198 15.4608 5.67348 15.4608C8.3959 15.4608 10.7525 13.0803 10.7525 10.1433C10.7525 7.20726 5.67348 0.44751 5.67348 0.44751C5.67348 0.44751 0.743652 7.20726 0.743652 10.1433Z" fill="#6CB6F1"/>
</svg>
